[gd_scene load_steps=12 format=3 uid="uid://do56mee43hhvx"]

[ext_resource type="Script" path="res://level_generator/road_generator.gd" id="1_6qnmg"]
[ext_resource type="PackedScene" path="res://level_generator/road_edge.tscn" id="2_8dkax"]

[sub_resource type="Gradient" id="Gradient_b0o31"]
colors = PackedColorArray(0, 0, 0, 1, 1, 0, 0, 1)

[sub_resource type="GradientTexture2D" id="GradientTexture2D_1rtt7"]
gradient = SubResource("Gradient_b0o31")

[sub_resource type="Gradient" id="Gradient_n08oo"]
colors = PackedColorArray(0, 0, 0, 1, 0, 1, 0, 1)

[sub_resource type="GradientTexture2D" id="GradientTexture2D_33yaq"]
gradient = SubResource("Gradient_n08oo")
fill_to = Vector2(0, 1)

[sub_resource type="Gradient" id="Gradient_ihr46"]
offsets = PackedFloat32Array(0, 0.289157, 1)
colors = PackedColorArray(0, 0, 0, 1, 0, 0, 1, 1, 0, 0, 1, 1)

[sub_resource type="GradientTexture2D" id="GradientTexture2D_emer7"]
gradient = SubResource("Gradient_ihr46")
fill_to = Vector2(0.5, 0)
repeat = 2

[sub_resource type="Image" id="Image_rkgoq"]
data = {
"data": PackedByteArray(0, 0, 0, 255, 4, 0, 27, 255, 8, 0, 55, 255, 12, 0, 83, 255, 16, 0, 111, 255, 20, 0, 139, 255, 24, 0, 167, 255, 28, 0, 195, 255, 32, 0, 223, 255, 36, 0, 251, 255, 40, 0, 255, 255, 44, 0, 255, 255, 48, 0, 255, 255, 52, 0, 255, 255, 56, 0, 255, 255, 60, 0, 255, 255, 64, 0, 255, 255, 68, 0, 255, 255, 72, 0, 255, 255, 76, 0, 255, 255, 80, 0, 255, 255, 85, 0, 255, 255, 89, 0, 255, 255, 93, 0, 255, 255, 97, 0, 255, 255, 101, 0, 255, 255, 105, 0, 255, 255, 109, 0, 255, 255, 113, 0, 255, 255, 117, 0, 255, 255, 121, 0, 255, 255, 125, 0, 255, 255, 129, 0, 255, 255, 133, 0, 255, 255, 137, 0, 255, 255, 141, 0, 255, 255, 145, 0, 255, 255, 149, 0, 255, 255, 153, 0, 255, 255, 157, 0, 255, 255, 161, 0, 255, 255, 165, 0, 255, 255, 170, 0, 255, 255, 174, 0, 255, 255, 178, 0, 255, 255, 182, 0, 255, 255, 186, 0, 255, 255, 190, 0, 255, 255, 194, 0, 255, 255, 198, 0, 255, 255, 202, 0, 255, 255, 206, 0, 255, 255, 210, 0, 255, 255, 214, 0, 255, 255, 218, 0, 251, 255, 222, 0, 223, 255, 226, 0, 195, 255, 230, 0, 167, 255, 234, 0, 139, 255, 238, 0, 111, 255, 242, 0, 83, 255, 246, 0, 55, 255, 250, 0, 27, 255, 255, 0, 0, 255, 0, 4, 0, 255, 4, 4, 27, 255, 8, 4, 55, 255, 12, 4, 83, 255, 16, 4, 111, 255, 20, 4, 139, 255, 24, 4, 167, 255, 28, 4, 195, 255, 32, 4, 223, 255, 36, 4, 251, 255, 40, 4, 255, 255, 44, 4, 255, 255, 48, 4, 255, 255, 52, 4, 255, 255, 56, 4, 255, 255, 60, 4, 255, 255, 64, 4, 255, 255, 68, 4, 255, 255, 72, 4, 255, 255, 76, 4, 255, 255, 80, 4, 255, 255, 85, 4, 255, 255, 89, 4, 255, 255, 93, 4, 255, 255, 97, 4, 255, 255, 101, 4, 255, 255, 105, 4, 255, 255, 109, 4, 255, 255, 113, 4, 255, 255, 117, 4, 255, 255, 121, 4, 255, 255, 125, 4, 255, 255, 129, 4, 255, 255, 133, 4, 255, 255, 137, 4, 255, 255, 141, 4, 255, 255, 145, 4, 255, 255, 149, 4, 255, 255, 153, 4, 255, 255, 157, 4, 255, 255, 161, 4, 255, 255, 165, 4, 255, 255, 170, 4, 255, 255, 174, 4, 255, 255, 178, 4, 255, 255, 182, 4, 255, 255, 186, 4, 255, 255, 190, 4, 255, 255, 194, 4, 255, 255, 198, 4, 255, 255, 202, 4, 255, 255, 206, 4, 255, 255, 210, 4, 255, 255, 214, 4, 255, 255, 218, 4, 251, 255, 222, 4, 223, 255, 226, 4, 195, 255, 230, 4, 167, 255, 234, 4, 139, 255, 238, 4, 111, 255, 242, 4, 83, 255, 246, 4, 55, 255, 250, 4, 27, 255, 255, 4, 0, 255, 0, 8, 0, 255, 4, 8, 27, 255, 8, 8, 55, 255, 12, 8, 83, 255, 16, 8, 111, 255, 20, 8, 139, 255, 24, 8, 167, 255, 28, 8, 195, 255, 32, 8, 223, 255, 36, 8, 251, 255, 40, 8, 255, 255, 44, 8, 255, 255, 48, 8, 255, 255, 52, 8, 255, 255, 56, 8, 255, 255, 60, 8, 255, 255, 64, 8, 255, 255, 68, 8, 255, 255, 72, 8, 255, 255, 76, 8, 255, 255, 80, 8, 255, 255, 85, 8, 255, 255, 89, 8, 255, 255, 93, 8, 255, 255, 97, 8, 255, 255, 101, 8, 255, 255, 105, 8, 255, 255, 109, 8, 255, 255, 113, 8, 255, 255, 117, 8, 255, 255, 121, 8, 255, 255, 125, 8, 255, 255, 129, 8, 255, 255, 133, 8, 255, 255, 137, 8, 255, 255, 141, 8, 255, 255, 145, 8, 255, 255, 149, 8, 255, 255, 153, 8, 255, 255, 157, 8, 255, 255, 161, 8, 255, 255, 165, 8, 255, 255, 170, 8, 255, 255, 174, 8, 255, 255, 178, 8, 255, 255, 182, 8, 255, 255, 186, 8, 255, 255, 190, 8, 255, 255, 194, 8, 255, 255, 198, 8, 255, 255, 202, 8, 255, 255, 206, 8, 255, 255, 210, 8, 255, 255, 214, 8, 255, 255, 218, 8, 251, 255, 222, 8, 223, 255, 226, 8, 195, 255, 230, 8, 167, 255, 234, 8, 139, 255, 238, 8, 111, 255, 242, 8, 83, 255, 246, 8, 55, 255, 250, 8, 27, 255, 255, 8, 0, 255, 0, 12, 0, 255, 4, 12, 27, 255, 8, 12, 55, 255, 12, 12, 83, 255, 16, 12, 111, 255, 20, 12, 139, 255, 24, 12, 167, 255, 28, 12, 195, 255, 32, 12, 223, 255, 36, 12, 251, 255, 40, 12, 255, 255, 44, 12, 255, 255, 48, 12, 255, 255, 52, 12, 255, 255, 56, 12, 255, 255, 60, 12, 255, 255, 64, 12, 255, 255, 68, 12, 255, 255, 72, 12, 255, 255, 76, 12, 255, 255, 80, 12, 255, 255, 85, 12, 255, 255, 89, 12, 255, 255, 93, 12, 255, 255, 97, 12, 255, 255, 101, 12, 255, 255, 105, 12, 255, 255, 109, 12, 255, 255, 113, 12, 255, 255, 117, 12, 255, 255, 121, 12, 255, 255, 125, 12, 255, 255, 129, 12, 255, 255, 133, 12, 255, 255, 137, 12, 255, 255, 141, 12, 255, 255, 145, 12, 255, 255, 149, 12, 255, 255, 153, 12, 255, 255, 157, 12, 255, 255, 161, 12, 255, 255, 165, 12, 255, 255, 170, 12, 255, 255, 174, 12, 255, 255, 178, 12, 255, 255, 182, 12, 255, 255, 186, 12, 255, 255, 190, 12, 255, 255, 194, 12, 255, 255, 198, 12, 255, 255, 202, 12, 255, 255, 206, 12, 255, 255, 210, 12, 255, 255, 214, 12, 255, 255, 218, 12, 251, 255, 222, 12, 223, 255, 226, 12, 195, 255, 230, 12, 167, 255, 234, 12, 139, 255, 238, 12, 111, 255, 242, 12, 83, 255, 246, 12, 55, 255, 250, 12, 27, 255, 255, 12, 0, 255, 0, 16, 0, 255, 4, 16, 27, 255, 8, 16, 55, 255, 12, 16, 83, 255, 16, 16, 111, 255, 20, 16, 139, 255, 24, 16, 167, 255, 28, 16, 195, 255, 32, 16, 223, 255, 36, 16, 251, 255, 40, 16, 255, 255, 44, 16, 255, 255, 48, 16, 255, 255, 52, 16, 255, 255, 56, 16, 255, 255, 60, 16, 255, 255, 64, 16, 255, 255, 68, 16, 255, 255, 72, 16, 255, 255, 76, 16, 255, 255, 80, 16, 255, 255, 85, 16, 255, 255, 89, 16, 255, 255, 93, 16, 255, 255, 97, 16, 255, 255, 101, 16, 255, 255, 105, 16, 255, 255, 109, 16, 255, 255, 113, 16, 255, 255, 117, 16, 255, 255, 121, 16, 255, 255, 125, 16, 255, 255, 129, 16, 255, 255, 133, 16, 255, 255, 137, 16, 255, 255, 141, 16, 255, 255, 145, 16, 255, 255, 149, 16, 255, 255, 153, 16, 255, 255, 157, 16, 255, 255, 161, 16, 255, 255, 165, 16, 255, 255, 170, 16, 255, 255, 174, 16, 255, 255, 178, 16, 255, 255, 182, 16, 255, 255, 186, 16, 255, 255, 190, 16, 255, 255, 194, 16, 255, 255, 198, 16, 255, 255, 202, 16, 255, 255, 206, 16, 255, 255, 210, 16, 255, 255, 214, 16, 255, 255, 218, 16, 251, 255, 222, 16, 223, 255, 226, 16, 195, 255, 230, 16, 167, 255, 234, 16, 139, 255, 238, 16, 111, 255, 242, 16, 83, 255, 246, 16, 55, 255, 250, 16, 27, 255, 255, 16, 0, 255, 0, 20, 0, 255, 4, 20, 27, 255, 8, 20, 55, 255, 12, 20, 83, 255, 16, 20, 111, 255, 20, 20, 139, 255, 24, 20, 167, 255, 28, 20, 195, 255, 32, 20, 223, 255, 36, 20, 251, 255, 40, 20, 255, 255, 44, 20, 255, 255, 48, 20, 255, 255, 52, 20, 255, 255, 56, 20, 255, 255, 60, 20, 255, 255, 64, 20, 255, 255, 68, 20, 255, 255, 72, 20, 255, 255, 76, 20, 255, 255, 80, 20, 255, 255, 85, 20, 255, 255, 89, 20, 255, 255, 93, 20, 255, 255, 97, 20, 255, 255, 101, 20, 255, 255, 105, 20, 255, 255, 109, 20, 255, 255, 113, 20, 255, 255, 117, 20, 255, 255, 121, 20, 255, 255, 125, 20, 255, 255, 129, 20, 255, 255, 133, 20, 255, 255, 137, 20, 255, 255, 141, 20, 255, 255, 145, 20, 255, 255, 149, 20, 255, 255, 153, 20, 255, 255, 157, 20, 255, 255, 161, 20, 255, 255, 165, 20, 255, 255, 170, 20, 255, 255, 174, 20, 255, 255, 178, 20, 255, 255, 182, 20, 255, 255, 186, 20, 255, 255, 190, 20, 255, 255, 194, 20, 255, 255, 198, 20, 255, 255, 202, 20, 255, 255, 206, 20, 255, 255, 210, 20, 255, 255, 214, 20, 255, 255, 218, 20, 251, 255, 222, 20, 223, 255, 226, 20, 195, 255, 230, 20, 167, 255, 234, 20, 139, 255, 238, 20, 111, 255, 242, 20, 83, 255, 246, 20, 55, 255, 250, 20, 27, 255, 255, 20, 0, 255, 0, 24, 0, 255, 4, 24, 27, 255, 8, 24, 55, 255, 12, 24, 83, 255, 16, 24, 111, 255, 20, 24, 139, 255, 24, 24, 167, 255, 28, 24, 195, 255, 32, 24, 223, 255, 36, 24, 251, 255, 40, 24, 255, 255, 44, 24, 255, 255, 48, 24, 255, 255, 52, 24, 255, 255, 56, 24, 255, 255, 60, 24, 255, 255, 64, 24, 255, 255, 68, 24, 255, 255, 72, 24, 255, 255, 76, 24, 255, 255, 80, 24, 255, 255, 85, 24, 255, 255, 89, 24, 255, 255, 93, 24, 255, 255, 97, 24, 255, 255, 101, 24, 255, 255, 105, 24, 255, 255, 109, 24, 255, 255, 113, 24, 255, 255, 117, 24, 255, 255, 121, 24, 255, 255, 125, 24, 255, 255, 129, 24, 255, 255, 133, 24, 255, 255, 137, 24, 255, 255, 141, 24, 255, 255, 145, 24, 255, 255, 149, 24, 255, 255, 153, 24, 255, 255, 157, 24, 255, 255, 161, 24, 255, 255, 165, 24, 255, 255, 170, 24, 255, 255, 174, 24, 255, 255, 178, 24, 255, 255, 182, 24, 255, 255, 186, 24, 255, 255, 190, 24, 255, 255, 194, 24, 255, 255, 198, 24, 255, 255, 202, 24, 255, 255, 206, 24, 255, 255, 210, 24, 255, 255, 214, 24, 255, 255, 218, 24, 251, 255, 222, 24, 223, 255, 226, 24, 195, 255, 230, 24, 167, 255, 234, 24, 139, 255, 238, 24, 111, 255, 242, 24, 83, 255, 246, 24, 55, 255, 250, 24, 27, 255, 255, 24, 0, 255, 0, 28, 0, 255, 4, 28, 27, 255, 8, 28, 55, 255, 12, 28, 83, 255, 16, 28, 111, 255, 20, 28, 139, 255, 24, 28, 167, 255, 28, 28, 195, 255, 32, 28, 223, 255, 36, 28, 251, 255, 40, 28, 255, 255, 44, 28, 255, 255, 48, 28, 255, 255, 52, 28, 255, 255, 56, 28, 255, 255, 60, 28, 255, 255, 64, 28, 255, 255, 68, 28, 255, 255, 72, 28, 255, 255, 76, 28, 255, 255, 80, 28, 255, 255, 85, 28, 255, 255, 89, 28, 255, 255, 93, 28, 255, 255, 97, 28, 255, 255, 101, 28, 255, 255, 105, 28, 255, 255, 109, 28, 255, 255, 113, 28, 255, 255, 117, 28, 255, 255, 121, 28, 255, 255, 125, 28, 255, 255, 129, 28, 255, 255, 133, 28, 255, 255, 137, 28, 255, 255, 141, 28, 255, 255, 145, 28, 255, 255, 149, 28, 255, 255, 153, 28, 255, 255, 157, 28, 255, 255, 161, 28, 255, 255, 165, 28, 255, 255, 170, 28, 255, 255, 174, 28, 255, 255, 178, 28, 255, 255, 182, 28, 255, 255, 186, 28, 255, 255, 190, 28, 255, 255, 194, 28, 255, 255, 198, 28, 255, 255, 202, 28, 255, 255, 206, 28, 255, 255, 210, 28, 255, 255, 214, 28, 255, 255, 218, 28, 251, 255, 222, 28, 223, 255, 226, 28, 195, 255, 230, 28, 167, 255, 234, 28, 139, 255, 238, 28, 111, 255, 242, 28, 83, 255, 246, 28, 55, 255, 250, 28, 27, 255, 255, 28, 0, 255, 0, 32, 0, 255, 4, 32, 27, 255, 8, 32, 55, 255, 12, 32, 83, 255, 16, 32, 111, 255, 20, 32, 139, 255, 24, 32, 167, 255, 28, 32, 195, 255, 32, 32, 223, 255, 36, 32, 251, 255, 40, 32, 255, 255, 44, 32, 255, 255, 48, 32, 255, 255, 52, 32, 255, 255, 56, 32, 255, 255, 60, 32, 255, 255, 64, 32, 255, 255, 68, 32, 255, 255, 72, 32, 255, 255, 76, 32, 255, 255, 80, 32, 255, 255, 85, 32, 255, 255, 89, 32, 255, 255, 93, 32, 255, 255, 97, 32, 255, 255, 101, 32, 255, 255, 105, 32, 255, 255, 109, 32, 255, 255, 113, 32, 255, 255, 117, 32, 255, 255, 121, 32, 255, 255, 125, 32, 255, 255, 129, 32, 255, 255, 133, 32, 255, 255, 137, 32, 255, 255, 141, 32, 255, 255, 145, 32, 255, 255, 149, 32, 255, 255, 153, 32, 255, 255, 157, 32, 255, 255, 161, 32, 255, 255, 165, 32, 255, 255, 170, 32, 255, 255, 174, 32, 255, 255, 178, 32, 255, 255, 182, 32, 255, 255, 186, 32, 255, 255, 190, 32, 255, 255, 194, 32, 255, 255, 198, 32, 255, 255, 202, 32, 255, 255, 206, 32, 255, 255, 210, 32, 255, 255, 214, 32, 255, 255, 218, 32, 251, 255, 222, 32, 223, 255, 226, 32, 195, 255, 230, 32, 167, 255, 234, 32, 139, 255, 238, 32, 111, 255, 242, 32, 83, 255, 246, 32, 55, 255, 250, 32, 27, 255, 255, 32, 0, 255, 0, 36, 0, 255, 4, 36, 27, 255, 8, 36, 55, 255, 12, 36, 83, 255, 16, 36, 111, 255, 20, 36, 139, 255, 24, 36, 167, 255, 28, 36, 195, 255, 32, 36, 223, 255, 36, 36, 251, 255, 40, 36, 255, 255, 44, 36, 255, 255, 48, 36, 255, 255, 52, 36, 255, 255, 56, 36, 255, 255, 60, 36, 255, 255, 64, 36, 255, 255, 68, 36, 255, 255, 72, 36, 255, 255, 76, 36, 255, 255, 80, 36, 255, 255, 85, 36, 255, 255, 89, 36, 255, 255, 93, 36, 255, 255, 97, 36, 255, 255, 101, 36, 255, 255, 105, 36, 255, 255, 109, 36, 255, 255, 113, 36, 255, 255, 117, 36, 255, 255, 121, 36, 255, 255, 125, 36, 255, 255, 129, 36, 255, 255, 133, 36, 255, 255, 137, 36, 255, 255, 141, 36, 255, 255, 145, 36, 255, 255, 149, 36, 255, 255, 153, 36, 255, 255, 157, 36, 255, 255, 161, 36, 255, 255, 165, 36, 255, 255, 170, 36, 255, 255, 174, 36, 255, 255, 178, 36, 255, 255, 182, 36, 255, 255, 186, 36, 255, 255, 190, 36, 255, 255, 194, 36, 255, 255, 198, 36, 255, 255, 202, 36, 255, 255, 206, 36, 255, 255, 210, 36, 255, 255, 214, 36, 255, 255, 218, 36, 251, 255, 222, 36, 223, 255, 226, 36, 195, 255, 230, 36, 167, 255, 234, 36, 139, 255, 238, 36, 111, 255, 242, 36, 83, 255, 246, 36, 55, 255, 250, 36, 27, 255, 255, 36, 0, 255, 0, 40, 0, 255, 4, 40, 27, 255, 8, 40, 55, 255, 12, 40, 83, 255, 16, 40, 111, 255, 20, 40, 139, 255, 24, 40, 167, 255, 28, 40, 195, 255, 32, 40, 223, 255, 36, 40, 251, 255, 40, 40, 255, 255, 44, 40, 255, 255, 48, 40, 255, 255, 52, 40, 255, 255, 56, 40, 255, 255, 60, 40, 255, 255, 64, 40, 255, 255, 68, 40, 255, 255, 72, 40, 255, 255, 76, 40, 255, 255, 80, 40, 255, 255, 85, 40, 255, 255, 89, 40, 255, 255, 93, 40, 255, 255, 97, 40, 255, 255, 101, 40, 255, 255, 105, 40, 255, 255, 109, 40, 255, 255, 113, 40, 255, 255, 117, 40, 255, 255, 121, 40, 255, 255, 125, 40, 255, 255, 129, 40, 255, 255, 133, 40, 255, 255, 137, 40, 255, 255, 141, 40, 255, 255, 145, 40, 255, 255, 149, 40, 255, 255, 153, 40, 255, 255, 157, 40, 255, 255, 161, 40, 255, 255, 165, 40, 255, 255, 170, 40, 255, 255, 174, 40, 255, 255, 178, 40, 255, 255, 182, 40, 255, 255, 186, 40, 255, 255, 190, 40, 255, 255, 194, 40, 255, 255, 198, 40, 255, 255, 202, 40, 255, 255, 206, 40, 255, 255, 210, 40, 255, 255, 214, 40, 255, 255, 218, 40, 251, 255, 222, 40, 223, 255, 226, 40, 195, 255, 230, 40, 167, 255, 234, 40, 139, 255, 238, 40, 111, 255, 242, 40, 83, 255, 246, 40, 55, 255, 250, 40, 27, 255, 255, 40, 0, 255, 0, 44, 0, 255, 4, 44, 27, 255, 8, 44, 55, 255, 12, 44, 83, 255, 16, 44, 111, 255, 20, 44, 139, 255, 24, 44, 167, 255, 28, 44, 195, 255, 32, 44, 223, 255, 36, 44, 251, 255, 40, 44, 255, 255, 44, 44, 255, 255, 48, 44, 255, 255, 52, 44, 255, 255, 56, 44, 255, 255, 60, 44, 255, 255, 64, 44, 255, 255, 68, 44, 255, 255, 72, 44, 255, 255, 76, 44, 255, 255, 80, 44, 255, 255, 85, 44, 255, 255, 89, 44, 255, 255, 93, 44, 255, 255, 97, 44, 255, 255, 101, 44, 255, 255, 105, 44, 255, 255, 109, 44, 255, 255, 113, 44, 255, 255, 117, 44, 255, 255, 121, 44, 255, 255, 125, 44, 255, 255, 129, 44, 255, 255, 133, 44, 255, 255, 137, 44, 255, 255, 141, 44, 255, 255, 145, 44, 255, 255, 149, 44, 255, 255, 153, 44, 255, 255, 157, 44, 255, 255, 161, 44, 255, 255, 165, 44, 255, 255, 170, 44, 255, 255, 174, 44, 255, 255, 178, 44, 255, 255, 182, 44, 255, 255, 186, 44, 255, 255, 190, 44, 255, 255, 194, 44, 255, 255, 198, 44, 255, 255, 202, 44, 255, 255, 206, 44, 255, 255, 210, 44, 255, 255, 214, 44, 255, 255, 218, 44, 251, 255, 222, 44, 223, 255, 226, 44, 195, 255, 230, 44, 167, 255, 234, 44, 139, 255, 238, 44, 111, 255, 242, 44, 83, 255, 246, 44, 55, 255, 250, 44, 27, 255, 255, 44, 0, 255, 0, 48, 0, 255, 4, 48, 27, 255, 8, 48, 55, 255, 12, 48, 83, 255, 16, 48, 111, 255, 20, 48, 139, 255, 24, 48, 167, 255, 28, 48, 195, 255, 32, 48, 223, 255, 36, 48, 251, 255, 40, 48, 255, 255, 44, 48, 255, 255, 48, 48, 255, 255, 52, 48, 255, 255, 56, 48, 255, 255, 60, 48, 255, 255, 64, 48, 255, 255, 68, 48, 255, 255, 72, 48, 255, 255, 76, 48, 255, 255, 80, 48, 255, 255, 85, 48, 255, 255, 89, 48, 255, 255, 93, 48, 255, 255, 97, 48, 255, 255, 101, 48, 255, 255, 105, 48, 255, 255, 109, 48, 255, 255, 113, 48, 255, 255, 117, 48, 255, 255, 121, 48, 255, 255, 125, 48, 255, 255, 129, 48, 255, 255, 133, 48, 255, 255, 137, 48, 255, 255, 141, 48, 255, 255, 145, 48, 255, 255, 149, 48, 255, 255, 153, 48, 255, 255, 157, 48, 255, 255, 161, 48, 255, 255, 165, 48, 255, 255, 170, 48, 255, 255, 174, 48, 255, 255, 178, 48, 255, 255, 182, 48, 255, 255, 186, 48, 255, 255, 190, 48, 255, 255, 194, 48, 255, 255, 198, 48, 255, 255, 202, 48, 255, 255, 206, 48, 255, 255, 210, 48, 255, 255, 214, 48, 255, 255, 218, 48, 251, 255, 222, 48, 223, 255, 226, 48, 195, 255, 230, 48, 167, 255, 234, 48, 139, 255, 238, 48, 111, 255, 242, 48, 83, 255, 246, 48, 55, 255, 250, 48, 27, 255, 255, 48, 0, 255, 0, 52, 0, 255, 4, 52, 27, 255, 8, 52, 55, 255, 12, 52, 83, 255, 16, 52, 111, 255, 20, 52, 139, 255, 24, 52, 167, 255, 28, 52, 195, 255, 32, 52, 223, 255, 36, 52, 251, 255, 40, 52, 255, 255, 44, 52, 255, 255, 48, 52, 255, 255, 52, 52, 255, 255, 56, 52, 255, 255, 60, 52, 255, 255, 64, 52, 255, 255, 68, 52, 255, 255, 72, 52, 255, 255, 76, 52, 255, 255, 80, 52, 255, 255, 85, 52, 255, 255, 89, 52, 255, 255, 93, 52, 255, 255, 97, 52, 255, 255, 101, 52, 255, 255, 105, 52, 255, 255, 109, 52, 255, 255, 113, 52, 255, 255, 117, 52, 255, 255, 121, 52, 255, 255, 125, 52, 255, 255, 129, 52, 255, 255, 133, 52, 255, 255, 137, 52, 255, 255, 141, 52, 255, 255, 145, 52, 255, 255, 149, 52, 255, 255, 153, 52, 255, 255, 157, 52, 255, 255, 161, 52, 255, 255, 165, 52, 255, 255, 170, 52, 255, 255, 174, 52, 255, 255, 178, 52, 255, 255, 182, 52, 255, 255, 186, 52, 255, 255, 190, 52, 255, 255, 194, 52, 255, 255, 198, 52, 255, 255, 202, 52, 255, 255, 206, 52, 255, 255, 210, 52, 255, 255, 214, 52, 255, 255, 218, 52, 251, 255, 222, 52, 223, 255, 226, 52, 195, 255, 230, 52, 167, 255, 234, 52, 139, 255, 238, 52, 111, 255, 242, 52, 83, 255, 246, 52, 55, 255, 250, 52, 27, 255, 255, 52, 0, 255, 0, 56, 0, 255, 4, 56, 27, 255, 8, 56, 55, 255, 12, 56, 83, 255, 16, 56, 111, 255, 20, 56, 139, 255, 24, 56, 167, 255, 28, 56, 195, 255, 32, 56, 223, 255, 36, 56, 251, 255, 40, 56, 255, 255, 44, 56, 255, 255, 48, 56, 255, 255, 52, 56, 255, 255, 56, 56, 255, 255, 60, 56, 255, 255, 64, 56, 255, 255, 68, 56, 255, 255, 72, 56, 255, 255, 76, 56, 255, 255, 80, 56, 255, 255, 85, 56, 255, 255, 89, 56, 255, 255, 93, 56, 255, 255, 97, 56, 255, 255, 101, 56, 255, 255, 105, 56, 255, 255, 109, 56, 255, 255, 113, 56, 255, 255, 117, 56, 255, 255, 121, 56, 255, 255, 125, 56, 255, 255, 129, 56, 255, 255, 133, 56, 255, 255, 137, 56, 255, 255, 141, 56, 255, 255, 145, 56, 255, 255, 149, 56, 255, 255, 153, 56, 255, 255, 157, 56, 255, 255, 161, 56, 255, 255, 165, 56, 255, 255, 170, 56, 255, 255, 174, 56, 255, 255, 178, 56, 255, 255, 182, 56, 255, 255, 186, 56, 255, 255, 190, 56, 255, 255, 194, 56, 255, 255, 198, 56, 255, 255, 202, 56, 255, 255, 206, 56, 255, 255, 210, 56, 255, 255, 214, 56, 255, 255, 218, 56, 251, 255, 222, 56, 223, 255, 226, 56, 195, 255, 230, 56, 167, 255, 234, 56, 139, 255, 238, 56, 111, 255, 242, 56, 83, 255, 246, 56, 55, 255, 250, 56, 27, 255, 255, 56, 0, 255, 0, 60, 0, 255, 4, 60, 27, 255, 8, 60, 55, 255, 12, 60, 83, 255, 16, 60, 111, 255, 20, 60, 139, 255, 24, 60, 167, 255, 28, 60, 195, 255, 32, 60, 223, 255, 36, 60, 251, 255, 40, 60, 255, 255, 44, 60, 255, 255, 48, 60, 255, 255, 52, 60, 255, 255, 56, 60, 255, 255, 60, 60, 255, 255, 64, 60, 255, 255, 68, 60, 255, 255, 72, 60, 255, 255, 76, 60, 255, 255, 80, 60, 255, 255, 85, 60, 255, 255, 89, 60, 255, 255, 93, 60, 255, 255, 97, 60, 255, 255, 101, 60, 255, 255, 105, 60, 255, 255, 109, 60, 255, 255, 113, 60, 255, 255, 117, 60, 255, 255, 121, 60, 255, 255, 125, 60, 255, 255, 129, 60, 255, 255, 133, 60, 255, 255, 137, 60, 255, 255, 141, 60, 255, 255, 145, 60, 255, 255, 149, 60, 255, 255, 153, 60, 255, 255, 157, 60, 255, 255, 161, 60, 255, 255, 165, 60, 255, 255, 170, 60, 255, 255, 174, 60, 255, 255, 178, 60, 255, 255, 182, 60, 255, 255, 186, 60, 255, 255, 190, 60, 255, 255, 194, 60, 255, 255, 198, 60, 255, 255, 202, 60, 255, 255, 206, 60, 255, 255, 210, 60, 255, 255, 214, 60, 255, 255, 218, 60, 251, 255, 222, 60, 223, 255, 226, 60, 195, 255, 230, 60, 167, 255, 234, 60, 139, 255, 238, 60, 111, 255, 242, 60, 83, 255, 246, 60, 55, 255, 250, 60, 27, 255, 255, 60, 0, 255, 0, 64, 0, 255, 4, 64, 27, 255, 8, 64, 55, 255, 12, 64, 83, 255, 16, 64, 111, 255, 20, 64, 139, 255, 24, 64, 167, 255, 28, 64, 195, 255, 32, 64, 223, 255, 36, 64, 251, 255, 40, 64, 255, 255, 44, 64, 255, 255, 48, 64, 255, 255, 52, 64, 255, 255, 56, 64, 255, 255, 60, 64, 255, 255, 64, 64, 255, 255, 68, 64, 255, 255, 72, 64, 255, 255, 76, 64, 255, 255, 80, 64, 255, 255, 85, 64, 255, 255, 89, 64, 255, 255, 93, 64, 255, 255, 97, 64, 255, 255, 101, 64, 255, 255, 105, 64, 255, 255, 109, 64, 255, 255, 113, 64, 255, 255, 117, 64, 255, 255, 121, 64, 255, 255, 125, 64, 255, 255, 129, 64, 255, 255, 133, 64, 255, 255, 137, 64, 255, 255, 141, 64, 255, 255, 145, 64, 255, 255, 149, 64, 255, 255, 153, 64, 255, 255, 157, 64, 255, 255, 161, 64, 255, 255, 165, 64, 255, 255, 170, 64, 255, 255, 174, 64, 255, 255, 178, 64, 255, 255, 182, 64, 255, 255, 186, 64, 255, 255, 190, 64, 255, 255, 194, 64, 255, 255, 198, 64, 255, 255, 202, 64, 255, 255, 206, 64, 255, 255, 210, 64, 255, 255, 214, 64, 255, 255, 218, 64, 251, 255, 222, 64, 223, 255, 226, 64, 195, 255, 230, 64, 167, 255, 234, 64, 139, 255, 238, 64, 111, 255, 242, 64, 83, 255, 246, 64, 55, 255, 250, 64, 27, 255, 255, 64, 0, 255, 0, 68, 0, 255, 4, 68, 27, 255, 8, 68, 55, 255, 12, 68, 83, 255, 16, 68, 111, 255, 20, 68, 139, 255, 24, 68, 167, 255, 28, 68, 195, 255, 32, 68, 223, 255, 36, 68, 251, 255, 40, 68, 255, 255, 44, 68, 255, 255, 48, 68, 255, 255, 52, 68, 255, 255, 56, 68, 255, 255, 60, 68, 255, 255, 64, 68, 255, 255, 68, 68, 255, 255, 72, 68, 255, 255, 76, 68, 255, 255, 80, 68, 255, 255, 85, 68, 255, 255, 89, 68, 255, 255, 93, 68, 255, 255, 97, 68, 255, 255, 101, 68, 255, 255, 105, 68, 255, 255, 109, 68, 255, 255, 113, 68, 255, 255, 117, 68, 255, 255, 121, 68, 255, 255, 125, 68, 255, 255, 129, 68, 255, 255, 133, 68, 255, 255, 137, 68, 255, 255, 141, 68, 255, 255, 145, 68, 255, 255, 149, 68, 255, 255, 153, 68, 255, 255, 157, 68, 255, 255, 161, 68, 255, 255, 165, 68, 255, 255, 170, 68, 255, 255, 174, 68, 255, 255, 178, 68, 255, 255, 182, 68, 255, 255, 186, 68, 255, 255, 190, 68, 255, 255, 194, 68, 255, 255, 198, 68, 255, 255, 202, 68, 255, 255, 206, 68, 255, 255, 210, 68, 255, 255, 214, 68, 255, 255, 218, 68, 251, 255, 222, 68, 223, 255, 226, 68, 195, 255, 230, 68, 167, 255, 234, 68, 139, 255, 238, 68, 111, 255, 242, 68, 83, 255, 246, 68, 55, 255, 250, 68, 27, 255, 255, 68, 0, 255, 0, 72, 0, 255, 4, 72, 27, 255, 8, 72, 55, 255, 12, 72, 83, 255, 16, 72, 111, 255, 20, 72, 139, 255, 24, 72, 167, 255, 28, 72, 195, 255, 32, 72, 223, 255, 36, 72, 251, 255, 40, 72, 255, 255, 44, 72, 255, 255, 48, 72, 255, 255, 52, 72, 255, 255, 56, 72, 255, 255, 60, 72, 255, 255, 64, 72, 255, 255, 68, 72, 255, 255, 72, 72, 255, 255, 76, 72, 255, 255, 80, 72, 255, 255, 85, 72, 255, 255, 89, 72, 255, 255, 93, 72, 255, 255, 97, 72, 255, 255, 101, 72, 255, 255, 105, 72, 255, 255, 109, 72, 255, 255, 113, 72, 255, 255, 117, 72, 255, 255, 121, 72, 255, 255, 125, 72, 255, 255, 129, 72, 255, 255, 133, 72, 255, 255, 137, 72, 255, 255, 141, 72, 255, 255, 145, 72, 255, 255, 149, 72, 255, 255, 153, 72, 255, 255, 157, 72, 255, 255, 161, 72, 255, 255, 165, 72, 255, 255, 170, 72, 255, 255, 174, 72, 255, 255, 178, 72, 255, 255, 182, 72, 255, 255, 186, 72, 255, 255, 190, 72, 255, 255, 194, 72, 255, 255, 198, 72, 255, 255, 202, 72, 255, 255, 206, 72, 255, 255, 210, 72, 255, 255, 214, 72, 255, 255, 218, 72, 251, 255, 222, 72, 223, 255, 226, 72, 195, 255, 230, 72, 167, 255, 234, 72, 139, 255, 238, 72, 111, 255, 242, 72, 83, 255, 246, 72, 55, 255, 250, 72, 27, 255, 255, 72, 0, 255, 0, 76, 0, 255, 4, 76, 27, 255, 8, 76, 55, 255, 12, 76, 83, 255, 16, 76, 111, 255, 20, 76, 139, 255, 24, 76, 167, 255, 28, 76, 195, 255, 32, 76, 223, 255, 36, 76, 251, 255, 40, 76, 255, 255, 44, 76, 255, 255, 48, 76, 255, 255, 52, 76, 255, 255, 56, 76, 255, 255, 60, 76, 255, 255, 64, 76, 255, 255, 68, 76, 255, 255, 72, 76, 255, 255, 76, 76, 255, 255, 80, 76, 255, 255, 85, 76, 255, 255, 89, 76, 255, 255, 93, 76, 255, 255, 97, 76, 255, 255, 101, 76, 255, 255, 105, 76, 255, 255, 109, 76, 255, 255, 113, 76, 255, 255, 117, 76, 255, 255, 121, 76, 255, 255, 125, 76, 255, 255, 129, 76, 255, 255, 133, 76, 255, 255, 137, 76, 255, 255, 141, 76, 255, 255, 145, 76, 255, 255, 149, 76, 255, 255, 153, 76, 255, 255, 157, 76, 255, 255, 161, 76, 255, 255, 165, 76, 255, 255, 170, 76, 255, 255, 174, 76, 255, 255, 178, 76, 255, 255, 182, 76, 255, 255, 186, 76, 255, 255, 190, 76, 255, 255, 194, 76, 255, 255, 198, 76, 255, 255, 202, 76, 255, 255, 206, 76, 255, 255, 210, 76, 255, 255, 214, 76, 255, 255, 218, 76, 251, 255, 222, 76, 223, 255, 226, 76, 195, 255, 230, 76, 167, 255, 234, 76, 139, 255, 238, 76, 111, 255, 242, 76, 83, 255, 246, 76, 55, 255, 250, 76, 27, 255, 255, 76, 0, 255, 0, 80, 0, 255, 4, 80, 27, 255, 8, 80, 55, 255, 12, 80, 83, 255, 16, 80, 111, 255, 20, 80, 139, 255, 24, 80, 167, 255, 28, 80, 195, 255, 32, 80, 223, 255, 36, 80, 251, 255, 40, 80, 255, 255, 44, 80, 255, 255, 48, 80, 255, 255, 52, 80, 255, 255, 56, 80, 255, 255, 60, 80, 255, 255, 64, 80, 255, 255, 68, 80, 255, 255, 72, 80, 255, 255, 76, 80, 255, 255, 80, 80, 255, 255, 85, 80, 255, 255, 89, 80, 255, 255, 93, 80, 255, 255, 97, 80, 255, 255, 101, 80, 255, 255, 105, 80, 255, 255, 109, 80, 255, 255, 113, 80, 255, 255, 117, 80, 255, 255, 121, 80, 255, 255, 125, 80, 255, 255, 129, 80, 255, 255, 133, 80, 255, 255, 137, 80, 255, 255, 141, 80, 255, 255, 145, 80, 255, 255, 149, 80, 255, 255, 153, 80, 255, 255, 157, 80, 255, 255, 161, 80, 255, 255, 165, 80, 255, 255, 170, 80, 255, 255, 174, 80, 255, 255, 178, 80, 255, 255, 182, 80, 255, 255, 186, 80, 255, 255, 190, 80, 255, 255, 194, 80, 255, 255, 198, 80, 255, 255, 202, 80, 255, 255, 206, 80, 255, 255, 210, 80, 255, 255, 214, 80, 255, 255, 218, 80, 251, 255, 222, 80, 223, 255, 226, 80, 195, 255, 230, 80, 167, 255, 234, 80, 139, 255, 238, 80, 111, 255, 242, 80, 83, 255, 246, 80, 55, 255, 250, 80, 27, 255, 255, 80, 0, 255, 0, 85, 0, 255, 4, 85, 27, 255, 8, 85, 55, 255, 12, 85, 83, 255, 16, 85, 111, 255, 20, 85, 139, 255, 24, 85, 167, 255, 28, 85, 195, 255, 32, 85, 223, 255, 36, 85, 251, 255, 40, 85, 255, 255, 44, 85, 255, 255, 48, 85, 255, 255, 52, 85, 255, 255, 56, 85, 255, 255, 60, 85, 255, 255, 64, 85, 255, 255, 68, 85, 255, 255, 72, 85, 255, 255, 76, 85, 255, 255, 80, 85, 255, 255, 85, 85, 255, 255, 89, 85, 255, 255, 93, 85, 255, 255, 97, 85, 255, 255, 101, 85, 255, 255, 105, 85, 255, 255, 109, 85, 255, 255, 113, 85, 255, 255, 117, 85, 255, 255, 121, 85, 255, 255, 125, 85, 255, 255, 129, 85, 255, 255, 133, 85, 255, 255, 137, 85, 255, 255, 141, 85, 255, 255, 145, 85, 255, 255, 149, 85, 255, 255, 153, 85, 255, 255, 157, 85, 255, 255, 161, 85, 255, 255, 165, 85, 255, 255, 170, 85, 255, 255, 174, 85, 255, 255, 178, 85, 255, 255, 182, 85, 255, 255, 186, 85, 255, 255, 190, 85, 255, 255, 194, 85, 255, 255, 198, 85, 255, 255, 202, 85, 255, 255, 206, 85, 255, 255, 210, 85, 255, 255, 214, 85, 255, 255, 218, 85, 251, 255, 222, 85, 223, 255, 226, 85, 195, 255, 230, 85, 167, 255, 234, 85, 139, 255, 238, 85, 111, 255, 242, 85, 83, 255, 246, 85, 55, 255, 250, 85, 27, 255, 255, 85, 0, 255, 0, 89, 0, 255, 4, 89, 27, 255, 8, 89, 55, 255, 12, 89, 83, 255, 16, 89, 111, 255, 20, 89, 139, 255, 24, 89, 167, 255, 28, 89, 195, 255, 32, 89, 223, 255, 36, 89, 251, 255, 40, 89, 255, 255, 44, 89, 255, 255, 48, 89, 255, 255, 52, 89, 255, 255, 56, 89, 255, 255, 60, 89, 255, 255, 64, 89, 255, 255, 68, 89, 255, 255, 72, 89, 255, 255, 76, 89, 255, 255, 80, 89, 255, 255, 85, 89, 255, 255, 89, 89, 255, 255, 93, 89, 255, 255, 97, 89, 255, 255, 101, 89, 255, 255, 105, 89, 255, 255, 109, 89, 255, 255, 113, 89, 255, 255, 117, 89, 255, 255, 121, 89, 255, 255, 125, 89, 255, 255, 129, 89, 255, 255, 133, 89, 255, 255, 137, 89, 255, 255, 141, 89, 255, 255, 145, 89, 255, 255, 149, 89, 255, 255, 153, 89, 255, 255, 157, 89, 255, 255, 161, 89, 255, 255, 165, 89, 255, 255, 170, 89, 255, 255, 174, 89, 255, 255, 178, 89, 255, 255, 182, 89, 255, 255, 186, 89, 255, 255, 190, 89, 255, 255, 194, 89, 255, 255, 198, 89, 255, 255, 202, 89, 255, 255, 206, 89, 255, 255, 210, 89, 255, 255, 214, 89, 255, 255, 218, 89, 251, 255, 222, 89, 223, 255, 226, 89, 195, 255, 230, 89, 167, 255, 234, 89, 139, 255, 238, 89, 111, 255, 242, 89, 83, 255, 246, 89, 55, 255, 250, 89, 27, 255, 255, 89, 0, 255, 0, 93, 0, 255, 4, 93, 27, 255, 8, 93, 55, 255, 12, 93, 83, 255, 16, 93, 111, 255, 20, 93, 139, 255, 24, 93, 167, 255, 28, 93, 195, 255, 32, 93, 223, 255, 36, 93, 251, 255, 40, 93, 255, 255, 44, 93, 255, 255, 48, 93, 255, 255, 52, 93, 255, 255, 56, 93, 255, 255, 60, 93, 255, 255, 64, 93, 255, 255, 68, 93, 255, 255, 72, 93, 255, 255, 76, 93, 255, 255, 80, 93, 255, 255, 85, 93, 255, 255, 89, 93, 255, 255, 93, 93, 255, 255, 97, 93, 255, 255, 101, 93, 255, 255, 105, 93, 255, 255, 109, 93, 255, 255, 113, 93, 255, 255, 117, 93, 255, 255, 121, 93, 255, 255, 125, 93, 255, 255, 129, 93, 255, 255, 133, 93, 255, 255, 137, 93, 255, 255, 141, 93, 255, 255, 145, 93, 255, 255, 149, 93, 255, 255, 153, 93, 255, 255, 157, 93, 255, 255, 161, 93, 255, 255, 165, 93, 255, 255, 170, 93, 255, 255, 174, 93, 255, 255, 178, 93, 255, 255, 182, 93, 255, 255, 186, 93, 255, 255, 190, 93, 255, 255, 194, 93, 255, 255, 198, 93, 255, 255, 202, 93, 255, 255, 206, 93, 255, 255, 210, 93, 255, 255, 214, 93, 255, 255, 218, 93, 251, 255, 222, 93, 223, 255, 226, 93, 195, 255, 230, 93, 167, 255, 234, 93, 139, 255, 238, 93, 111, 255, 242, 93, 83, 255, 246, 93, 55, 255, 250, 93, 27, 255, 255, 93, 0, 255, 0, 97, 0, 255, 4, 97, 27, 255, 8, 97, 55, 255, 12, 97, 83, 255, 16, 97, 111, 255, 20, 97, 139, 255, 24, 97, 167, 255, 28, 97, 195, 255, 32, 97, 223, 255, 36, 97, 251, 255, 40, 97, 255, 255, 44, 97, 255, 255, 48, 97, 255, 255, 52, 97, 255, 255, 56, 97, 255, 255, 60, 97, 255, 255, 64, 97, 255, 255, 68, 97, 255, 255, 72, 97, 255, 255, 76, 97, 255, 255, 80, 97, 255, 255, 85, 97, 255, 255, 89, 97, 255, 255, 93, 97, 255, 255, 97, 97, 255, 255, 101, 97, 255, 255, 105, 97, 255, 255, 109, 97, 255, 255, 113, 97, 255, 255, 117, 97, 255, 255, 121, 97, 255, 255, 125, 97, 255, 255, 129, 97, 255, 255, 133, 97, 255, 255, 137, 97, 255, 255, 141, 97, 255, 255, 145, 97, 255, 255, 149, 97, 255, 255, 153, 97, 255, 255, 157, 97, 255, 255, 161, 97, 255, 255, 165, 97, 255, 255, 170, 97, 255, 255, 174, 97, 255, 255, 178, 97, 255, 255, 182, 97, 255, 255, 186, 97, 255, 255, 190, 97, 255, 255, 194, 97, 255, 255, 198, 97, 255, 255, 202, 97, 255, 255, 206, 97, 255, 255, 210, 97, 255, 255, 214, 97, 255, 255, 218, 97, 251, 255, 222, 97, 223, 255, 226, 97, 195, 255, 230, 97, 167, 255, 234, 97, 139, 255, 238, 97, 111, 255, 242, 97, 83, 255, 246, 97, 55, 255, 250, 97, 27, 255, 255, 97, 0, 255, 0, 101, 0, 255, 4, 101, 27, 255, 8, 101, 55, 255, 12, 101, 83, 255, 16, 101, 111, 255, 20, 101, 139, 255, 24, 101, 167, 255, 28, 101, 195, 255, 32, 101, 223, 255, 36, 101, 251, 255, 40, 101, 255, 255, 44, 101, 255, 255, 48, 101, 255, 255, 52, 101, 255, 255, 56, 101, 255, 255, 60, 101, 255, 255, 64, 101, 255, 255, 68, 101, 255, 255, 72, 101, 255, 255, 76, 101, 255, 255, 80, 101, 255, 255, 85, 101, 255, 255, 89, 101, 255, 255, 93, 101, 255, 255, 97, 101, 255, 255, 101, 101, 255, 255, 105, 101, 255, 255, 109, 101, 255, 255, 113, 101, 255, 255, 117, 101, 255, 255, 121, 101, 255, 255, 125, 101, 255, 255, 129, 101, 255, 255, 133, 101, 255, 255, 137, 101, 255, 255, 141, 101, 255, 255, 145, 101, 255, 255, 149, 101, 255, 255, 153, 101, 255, 255, 157, 101, 255, 255, 161, 101, 255, 255, 165, 101, 255, 255, 170, 101, 255, 255, 174, 101, 255, 255, 178, 101, 255, 255, 182, 101, 255, 255, 186, 101, 255, 255, 190, 101, 255, 255, 194, 101, 255, 255, 198, 101, 255, 255, 202, 101, 255, 255, 206, 101, 255, 255, 210, 101, 255, 255, 214, 101, 255, 255, 218, 101, 251, 255, 222, 101, 223, 255, 226, 101, 195, 255, 230, 101, 167, 255, 234, 101, 139, 255, 238, 101, 111, 255, 242, 101, 83, 255, 246, 101, 55, 255, 250, 101, 27, 255, 255, 101, 0, 255, 0, 105, 0, 255, 4, 105, 27, 255, 8, 105, 55, 255, 12, 105, 83, 255, 16, 105, 111, 255, 20, 105, 139, 255, 24, 105, 167, 255, 28, 105, 195, 255, 32, 105, 223, 255, 36, 105, 251, 255, 40, 105, 255, 255, 44, 105, 255, 255, 48, 105, 255, 255, 52, 105, 255, 255, 56, 105, 255, 255, 60, 105, 255, 255, 64, 105, 255, 255, 68, 105, 255, 255, 72, 105, 255, 255, 76, 105, 255, 255, 80, 105, 255, 255, 85, 105, 255, 255, 89, 105, 255, 255, 93, 105, 255, 255, 97, 105, 255, 255, 101, 105, 255, 255, 105, 105, 255, 255, 109, 105, 255, 255, 113, 105, 255, 255, 117, 105, 255, 255, 121, 105, 255, 255, 125, 105, 255, 255, 129, 105, 255, 255, 133, 105, 255, 255, 137, 105, 255, 255, 141, 105, 255, 255, 145, 105, 255, 255, 149, 105, 255, 255, 153, 105, 255, 255, 157, 105, 255, 255, 161, 105, 255, 255, 165, 105, 255, 255, 170, 105, 255, 255, 174, 105, 255, 255, 178, 105, 255, 255, 182, 105, 255, 255, 186, 105, 255, 255, 190, 105, 255, 255, 194, 105, 255, 255, 198, 105, 255, 255, 202, 105, 255, 255, 206, 105, 255, 255, 210, 105, 255, 255, 214, 105, 255, 255, 218, 105, 251, 255, 222, 105, 223, 255, 226, 105, 195, 255, 230, 105, 167, 255, 234, 105, 139, 255, 238, 105, 111, 255, 242, 105, 83, 255, 246, 105, 55, 255, 250, 105, 27, 255, 255, 105, 0, 255, 0, 109, 0, 255, 4, 109, 27, 255, 8, 109, 55, 255, 12, 109, 83, 255, 16, 109, 111, 255, 20, 109, 139, 255, 24, 109, 167, 255, 28, 109, 195, 255, 32, 109, 223, 255, 36, 109, 251, 255, 40, 109, 255, 255, 44, 109, 255, 255, 48, 109, 255, 255, 52, 109, 255, 255, 56, 109, 255, 255, 60, 109, 255, 255, 64, 109, 255, 255, 68, 109, 255, 255, 72, 109, 255, 255, 76, 109, 255, 255, 80, 109, 255, 255, 85, 109, 255, 255, 89, 109, 255, 255, 93, 109, 255, 255, 97, 109, 255, 255, 101, 109, 255, 255, 105, 109, 255, 255, 109, 109, 255, 255, 113, 109, 255, 255, 117, 109, 255, 255, 121, 109, 255, 255, 125, 109, 255, 255, 129, 109, 255, 255, 133, 109, 255, 255, 137, 109, 255, 255, 141, 109, 255, 255, 145, 109, 255, 255, 149, 109, 255, 255, 153, 109, 255, 255, 157, 109, 255, 255, 161, 109, 255, 255, 165, 109, 255, 255, 170, 109, 255, 255, 174, 109, 255, 255, 178, 109, 255, 255, 182, 109, 255, 255, 186, 109, 255, 255, 190, 109, 255, 255, 194, 109, 255, 255, 198, 109, 255, 255, 202, 109, 255, 255, 206, 109, 255, 255, 210, 109, 255, 255, 214, 109, 255, 255, 218, 109, 251, 255, 222, 109, 223, 255, 226, 109, 195, 255, 230, 109, 167, 255, 234, 109, 139, 255, 238, 109, 111, 255, 242, 109, 83, 255, 246, 109, 55, 255, 250, 109, 27, 255, 255, 109, 0, 255, 0, 113, 0, 255, 4, 113, 27, 255, 8, 113, 55, 255, 12, 113, 83, 255, 16, 113, 111, 255, 20, 113, 139, 255, 24, 113, 167, 255, 28, 113, 195, 255, 32, 113, 223, 255, 36, 113, 251, 255, 40, 113, 255, 255, 44, 113, 255, 255, 48, 113, 255, 255, 52, 113, 255, 255, 56, 113, 255, 255, 60, 113, 255, 255, 64, 113, 255, 255, 68, 113, 255, 255, 72, 113, 255, 255, 76, 113, 255, 255, 80, 113, 255, 255, 85, 113, 255, 255, 89, 113, 255, 255, 93, 113, 255, 255, 97, 113, 255, 255, 101, 113, 255, 255, 105, 113, 255, 255, 109, 113, 255, 255, 113, 113, 255, 255, 117, 113, 255, 255, 121, 113, 255, 255, 125, 113, 255, 255, 129, 113, 255, 255, 133, 113, 255, 255, 137, 113, 255, 255, 141, 113, 255, 255, 145, 113, 255, 255, 149, 113, 255, 255, 153, 113, 255, 255, 157, 113, 255, 255, 161, 113, 255, 255, 165, 113, 255, 255, 170, 113, 255, 255, 174, 113, 255, 255, 178, 113, 255, 255, 182, 113, 255, 255, 186, 113, 255, 255, 190, 113, 255, 255, 194, 113, 255, 255, 198, 113, 255, 255, 202, 113, 255, 255, 206, 113, 255, 255, 210, 113, 255, 255, 214, 113, 255, 255, 218, 113, 251, 255, 222, 113, 223, 255, 226, 113, 195, 255, 230, 113, 167, 255, 234, 113, 139, 255, 238, 113, 111, 255, 242, 113, 83, 255, 246, 113, 55, 255, 250, 113, 27, 255, 255, 113, 0, 255, 0, 117, 0, 255, 4, 117, 27, 255, 8, 117, 55, 255, 12, 117, 83, 255, 16, 117, 111, 255, 20, 117, 139, 255, 24, 117, 167, 255, 28, 117, 195, 255, 32, 117, 223, 255, 36, 117, 251, 255, 40, 117, 255, 255, 44, 117, 255, 255, 48, 117, 255, 255, 52, 117, 255, 255, 56, 117, 255, 255, 60, 117, 255, 255, 64, 117, 255, 255, 68, 117, 255, 255, 72, 117, 255, 255, 76, 117, 255, 255, 80, 117, 255, 255, 85, 117, 255, 255, 89, 117, 255, 255, 93, 117, 255, 255, 97, 117, 255, 255, 101, 117, 255, 255, 105, 117, 255, 255, 109, 117, 255, 255, 113, 117, 255, 255, 117, 117, 255, 255, 121, 117, 255, 255, 125, 117, 255, 255, 129, 117, 255, 255, 133, 117, 255, 255, 137, 117, 255, 255, 141, 117, 255, 255, 145, 117, 255, 255, 149, 117, 255, 255, 153, 117, 255, 255, 157, 117, 255, 255, 161, 117, 255, 255, 165, 117, 255, 255, 170, 117, 255, 255, 174, 117, 255, 255, 178, 117, 255, 255, 182, 117, 255, 255, 186, 117, 255, 255, 190, 117, 255, 255, 194, 117, 255, 255, 198, 117, 255, 255, 202, 117, 255, 255, 206, 117, 255, 255, 210, 117, 255, 255, 214, 117, 255, 255, 218, 117, 251, 255, 222, 117, 223, 255, 226, 117, 195, 255, 230, 117, 167, 255, 234, 117, 139, 255, 238, 117, 111, 255, 242, 117, 83, 255, 246, 117, 55, 255, 250, 117, 27, 255, 255, 117, 0, 255, 0, 121, 0, 255, 4, 121, 27, 255, 8, 121, 55, 255, 12, 121, 83, 255, 16, 121, 111, 255, 20, 121, 139, 255, 24, 121, 167, 255, 28, 121, 195, 255, 32, 121, 223, 255, 36, 121, 251, 255, 40, 121, 255, 255, 44, 121, 255, 255, 48, 121, 255, 255, 52, 121, 255, 255, 56, 121, 255, 255, 60, 121, 255, 255, 64, 121, 255, 255, 68, 121, 255, 255, 72, 121, 255, 255, 76, 121, 255, 255, 80, 121, 255, 255, 85, 121, 255, 255, 89, 121, 255, 255, 93, 121, 255, 255, 97, 121, 255, 255, 101, 121, 255, 255, 105, 121, 255, 255, 109, 121, 255, 255, 113, 121, 255, 255, 117, 121, 255, 255, 121, 121, 255, 255, 125, 121, 255, 255, 129, 121, 255, 255, 133, 121, 255, 255, 137, 121, 255, 255, 141, 121, 255, 255, 145, 121, 255, 255, 149, 121, 255, 255, 153, 121, 255, 255, 157, 121, 255, 255, 161, 121, 255, 255, 165, 121, 255, 255, 170, 121, 255, 255, 174, 121, 255, 255, 178, 121, 255, 255, 182, 121, 255, 255, 186, 121, 255, 255, 190, 121, 255, 255, 194, 121, 255, 255, 198, 121, 255, 255, 202, 121, 255, 255, 206, 121, 255, 255, 210, 121, 255, 255, 214, 121, 255, 255, 218, 121, 251, 255, 222, 121, 223, 255, 226, 121, 195, 255, 230, 121, 167, 255, 234, 121, 139, 255, 238, 121, 111, 255, 242, 121, 83, 255, 246, 121, 55, 255, 250, 121, 27, 255, 255, 121, 0, 255, 0, 125, 0, 255, 4, 125, 27, 255, 8, 125, 55, 255, 12, 125, 83, 255, 16, 125, 111, 255, 20, 125, 139, 255, 24, 125, 167, 255, 28, 125, 195, 255, 32, 125, 223, 255, 36, 125, 251, 255, 40, 125, 255, 255, 44, 125, 255, 255, 48, 125, 255, 255, 52, 125, 255, 255, 56, 125, 255, 255, 60, 125, 255, 255, 64, 125, 255, 255, 68, 125, 255, 255, 72, 125, 255, 255, 76, 125, 255, 255, 80, 125, 255, 255, 85, 125, 255, 255, 89, 125, 255, 255, 93, 125, 255, 255, 97, 125, 255, 255, 101, 125, 255, 255, 105, 125, 255, 255, 109, 125, 255, 255, 113, 125, 255, 255, 117, 125, 255, 255, 121, 125, 255, 255, 125, 125, 255, 255, 129, 125, 255, 255, 133, 125, 255, 255, 137, 125, 255, 255, 141, 125, 255, 255, 145, 125, 255, 255, 149, 125, 255, 255, 153, 125, 255, 255, 157, 125, 255, 255, 161, 125, 255, 255, 165, 125, 255, 255, 170, 125, 255, 255, 174, 125, 255, 255, 178, 125, 255, 255, 182, 125, 255, 255, 186, 125, 255, 255, 190, 125, 255, 255, 194, 125, 255, 255, 198, 125, 255, 255, 202, 125, 255, 255, 206, 125, 255, 255, 210, 125, 255, 255, 214, 125, 255, 255, 218, 125, 251, 255, 222, 125, 223, 255, 226, 125, 195, 255, 230, 125, 167, 255, 234, 125, 139, 255, 238, 125, 111, 255, 242, 125, 83, 255, 246, 125, 55, 255, 250, 125, 27, 255, 255, 125, 0, 255, 0, 129, 0, 255, 4, 129, 27, 255, 8, 129, 55, 255, 12, 129, 83, 255, 16, 129, 111, 255, 20, 129, 139, 255, 24, 129, 167, 255, 28, 129, 195, 255, 32, 129, 223, 255, 36, 129, 251, 255, 40, 129, 255, 255, 44, 129, 255, 255, 48, 129, 255, 255, 52, 129, 255, 255, 56, 129, 255, 255, 60, 129, 255, 255, 64, 129, 255, 255, 68, 129, 255, 255, 72, 129, 255, 255, 76, 129, 255, 255, 80, 129, 255, 255, 85, 129, 255, 255, 89, 129, 255, 255, 93, 129, 255, 255, 97, 129, 255, 255, 101, 129, 255, 255, 105, 129, 255, 255, 109, 129, 255, 255, 113, 129, 255, 255, 117, 129, 255, 255, 121, 129, 255, 255, 125, 129, 255, 255, 129, 129, 255, 255, 133, 129, 255, 255, 137, 129, 255, 255, 141, 129, 255, 255, 145, 129, 255, 255, 149, 129, 255, 255, 153, 129, 255, 255, 157, 129, 255, 255, 161, 129, 255, 255, 165, 129, 255, 255, 170, 129, 255, 255, 174, 129, 255, 255, 178, 129, 255, 255, 182, 129, 255, 255, 186, 129, 255, 255, 190, 129, 255, 255, 194, 129, 255, 255, 198, 129, 255, 255, 202, 129, 255, 255, 206, 129, 255, 255, 210, 129, 255, 255, 214, 129, 255, 255, 218, 129, 251, 255, 222, 129, 223, 255, 226, 129, 195, 255, 230, 129, 167, 255, 234, 129, 139, 255, 238, 129, 111, 255, 242, 129, 83, 255, 246, 129, 55, 255, 250, 129, 27, 255, 255, 129, 0, 255, 0, 133, 0, 255, 4, 133, 27, 255, 8, 133, 55, 255, 12, 133, 83, 255, 16, 133, 111, 255, 20, 133, 139, 255, 24, 133, 167, 255, 28, 133, 195, 255, 32, 133, 223, 255, 36, 133, 251, 255, 40, 133, 255, 255, 44, 133, 255, 255, 48, 133, 255, 255, 52, 133, 255, 255, 56, 133, 255, 255, 60, 133, 255, 255, 64, 133, 255, 255, 68, 133, 255, 255, 72, 133, 255, 255, 76, 133, 255, 255, 80, 133, 255, 255, 85, 133, 255, 255, 89, 133, 255, 255, 93, 133, 255, 255, 97, 133, 255, 255, 101, 133, 255, 255, 105, 133, 255, 255, 109, 133, 255, 255, 113, 133, 255, 255, 117, 133, 255, 255, 121, 133, 255, 255, 125, 133, 255, 255, 129, 133, 255, 255, 133, 133, 255, 255, 137, 133, 255, 255, 141, 133, 255, 255, 145, 133, 255, 255, 149, 133, 255, 255, 153, 133, 255, 255, 157, 133, 255, 255, 161, 133, 255, 255, 165, 133, 255, 255, 170, 133, 255, 255, 174, 133, 255, 255, 178, 133, 255, 255, 182, 133, 255, 255, 186, 133, 255, 255, 190, 133, 255, 255, 194, 133, 255, 255, 198, 133, 255, 255, 202, 133, 255, 255, 206, 133, 255, 255, 210, 133, 255, 255, 214, 133, 255, 255, 218, 133, 251, 255, 222, 133, 223, 255, 226, 133, 195, 255, 230, 133, 167, 255, 234, 133, 139, 255, 238, 133, 111, 255, 242, 133, 83, 255, 246, 133, 55, 255, 250, 133, 27, 255, 255, 133, 0, 255, 0, 137, 0, 255, 4, 137, 27, 255, 8, 137, 55, 255, 12, 137, 83, 255, 16, 137, 111, 255, 20, 137, 139, 255, 24, 137, 167, 255, 28, 137, 195, 255, 32, 137, 223, 255, 36, 137, 251, 255, 40, 137, 255, 255, 44, 137, 255, 255, 48, 137, 255, 255, 52, 137, 255, 255, 56, 137, 255, 255, 60, 137, 255, 255, 64, 137, 255, 255, 68, 137, 255, 255, 72, 137, 255, 255, 76, 137, 255, 255, 80, 137, 255, 255, 85, 137, 255, 255, 89, 137, 255, 255, 93, 137, 255, 255, 97, 137, 255, 255, 101, 137, 255, 255, 105, 137, 255, 255, 109, 137, 255, 255, 113, 137, 255, 255, 117, 137, 255, 255, 121, 137, 255, 255, 125, 137, 255, 255, 129, 137, 255, 255, 133, 137, 255, 255, 137, 137, 255, 255, 141, 137, 255, 255, 145, 137, 255, 255, 149, 137, 255, 255, 153, 137, 255, 255, 157, 137, 255, 255, 161, 137, 255, 255, 165, 137, 255, 255, 170, 137, 255, 255, 174, 137, 255, 255, 178, 137, 255, 255, 182, 137, 255, 255, 186, 137, 255, 255, 190, 137, 255, 255, 194, 137, 255, 255, 198, 137, 255, 255, 202, 137, 255, 255, 206, 137, 255, 255, 210, 137, 255, 255, 214, 137, 255, 255, 218, 137, 251, 255, 222, 137, 223, 255, 226, 137, 195, 255, 230, 137, 167, 255, 234, 137, 139, 255, 238, 137, 111, 255, 242, 137, 83, 255, 246, 137, 55, 255, 250, 137, 27, 255, 255, 137, 0, 255, 0, 141, 0, 255, 4, 141, 27, 255, 8, 141, 55, 255, 12, 141, 83, 255, 16, 141, 111, 255, 20, 141, 139, 255, 24, 141, 167, 255, 28, 141, 195, 255, 32, 141, 223, 255, 36, 141, 251, 255, 40, 141, 255, 255, 44, 141, 255, 255, 48, 141, 255, 255, 52, 141, 255, 255, 56, 141, 255, 255, 60, 141, 255, 255, 64, 141, 255, 255, 68, 141, 255, 255, 72, 141, 255, 255, 76, 141, 255, 255, 80, 141, 255, 255, 85, 141, 255, 255, 89, 141, 255, 255, 93, 141, 255, 255, 97, 141, 255, 255, 101, 141, 255, 255, 105, 141, 255, 255, 109, 141, 255, 255, 113, 141, 255, 255, 117, 141, 255, 255, 121, 141, 255, 255, 125, 141, 255, 255, 129, 141, 255, 255, 133, 141, 255, 255, 137, 141, 255, 255, 141, 141, 255, 255, 145, 141, 255, 255, 149, 141, 255, 255, 153, 141, 255, 255, 157, 141, 255, 255, 161, 141, 255, 255, 165, 141, 255, 255, 170, 141, 255, 255, 174, 141, 255, 255, 178, 141, 255, 255, 182, 141, 255, 255, 186, 141, 255, 255, 190, 141, 255, 255, 194, 141, 255, 255, 198, 141, 255, 255, 202, 141, 255, 255, 206, 141, 255, 255, 210, 141, 255, 255, 214, 141, 255, 255, 218, 141, 251, 255, 222, 141, 223, 255, 226, 141, 195, 255, 230, 141, 167, 255, 234, 141, 139, 255, 238, 141, 111, 255, 242, 141, 83, 255, 246, 141, 55, 255, 250, 141, 27, 255, 255, 141, 0, 255, 0, 145, 0, 255, 4, 145, 27, 255, 8, 145, 55, 255, 12, 145, 83, 255, 16, 145, 111, 255, 20, 145, 139, 255, 24, 145, 167, 255, 28, 145, 195, 255, 32, 145, 223, 255, 36, 145, 251, 255, 40, 145, 255, 255, 44, 145, 255, 255, 48, 145, 255, 255, 52, 145, 255, 255, 56, 145, 255, 255, 60, 145, 255, 255, 64, 145, 255, 255, 68, 145, 255, 255, 72, 145, 255, 255, 76, 145, 255, 255, 80, 145, 255, 255, 85, 145, 255, 255, 89, 145, 255, 255, 93, 145, 255, 255, 97, 145, 255, 255, 101, 145, 255, 255, 105, 145, 255, 255, 109, 145, 255, 255, 113, 145, 255, 255, 117, 145, 255, 255, 121, 145, 255, 255, 125, 145, 255, 255, 129, 145, 255, 255, 133, 145, 255, 255, 137, 145, 255, 255, 141, 145, 255, 255, 145, 145, 255, 255, 149, 145, 255, 255, 153, 145, 255, 255, 157, 145, 255, 255, 161, 145, 255, 255, 165, 145, 255, 255, 170, 145, 255, 255, 174, 145, 255, 255, 178, 145, 255, 255, 182, 145, 255, 255, 186, 145, 255, 255, 190, 145, 255, 255, 194, 145, 255, 255, 198, 145, 255, 255, 202, 145, 255, 255, 206, 145, 255, 255, 210, 145, 255, 255, 214, 145, 255, 255, 218, 145, 251, 255, 222, 145, 223, 255, 226, 145, 195, 255, 230, 145, 167, 255, 234, 145, 139, 255, 238, 145, 111, 255, 242, 145, 83, 255, 246, 145, 55, 255, 250, 145, 27, 255, 255, 145, 0, 255, 0, 149, 0, 255, 4, 149, 27, 255, 8, 149, 55, 255, 12, 149, 83, 255, 16, 149, 111, 255, 20, 149, 139, 255, 24, 149, 167, 255, 28, 149, 195, 255, 32, 149, 223, 255, 36, 149, 251, 255, 40, 149, 255, 255, 44, 149, 255, 255, 48, 149, 255, 255, 52, 149, 255, 255, 56, 149, 255, 255, 60, 149, 255, 255, 64, 149, 255, 255, 68, 149, 255, 255, 72, 149, 255, 255, 76, 149, 255, 255, 80, 149, 255, 255, 85, 149, 255, 255, 89, 149, 255, 255, 93, 149, 255, 255, 97, 149, 255, 255, 101, 149, 255, 255, 105, 149, 255, 255, 109, 149, 255, 255, 113, 149, 255, 255, 117, 149, 255, 255, 121, 149, 255, 255, 125, 149, 255, 255, 129, 149, 255, 255, 133, 149, 255, 255, 137, 149, 255, 255, 141, 149, 255, 255, 145, 149, 255, 255, 149, 149, 255, 255, 153, 149, 255, 255, 157, 149, 255, 255, 161, 149, 255, 255, 165, 149, 255, 255, 170, 149, 255, 255, 174, 149, 255, 255, 178, 149, 255, 255, 182, 149, 255, 255, 186, 149, 255, 255, 190, 149, 255, 255, 194, 149, 255, 255, 198, 149, 255, 255, 202, 149, 255, 255, 206, 149, 255, 255, 210, 149, 255, 255, 214, 149, 255, 255, 218, 149, 251, 255, 222, 149, 223, 255, 226, 149, 195, 255, 230, 149, 167, 255, 234, 149, 139, 255, 238, 149, 111, 255, 242, 149, 83, 255, 246, 149, 55, 255, 250, 149, 27, 255, 255, 149, 0, 255, 0, 153, 0, 255, 4, 153, 27, 255, 8, 153, 55, 255, 12, 153, 83, 255, 16, 153, 111, 255, 20, 153, 139, 255, 24, 153, 167, 255, 28, 153, 195, 255, 32, 153, 223, 255, 36, 153, 251, 255, 40, 153, 255, 255, 44, 153, 255, 255, 48, 153, 255, 255, 52, 153, 255, 255, 56, 153, 255, 255, 60, 153, 255, 255, 64, 153, 255, 255, 68, 153, 255, 255, 72, 153, 255, 255, 76, 153, 255, 255, 80, 153, 255, 255, 85, 153, 255, 255, 89, 153, 255, 255, 93, 153, 255, 255, 97, 153, 255, 255, 101, 153, 255, 255, 105, 153, 255, 255, 109, 153, 255, 255, 113, 153, 255, 255, 117, 153, 255, 255, 121, 153, 255, 255, 125, 153, 255, 255, 129, 153, 255, 255, 133, 153, 255, 255, 137, 153, 255, 255, 141, 153, 255, 255, 145, 153, 255, 255, 149, 153, 255, 255, 153, 153, 255, 255, 157, 153, 255, 255, 161, 153, 255, 255, 165, 153, 255, 255, 170, 153, 255, 255, 174, 153, 255, 255, 178, 153, 255, 255, 182, 153, 255, 255, 186, 153, 255, 255, 190, 153, 255, 255, 194, 153, 255, 255, 198, 153, 255, 255, 202, 153, 255, 255, 206, 153, 255, 255, 210, 153, 255, 255, 214, 153, 255, 255, 218, 153, 251, 255, 222, 153, 223, 255, 226, 153, 195, 255, 230, 153, 167, 255, 234, 153, 139, 255, 238, 153, 111, 255, 242, 153, 83, 255, 246, 153, 55, 255, 250, 153, 27, 255, 255, 153, 0, 255, 0, 157, 0, 255, 4, 157, 27, 255, 8, 157, 55, 255, 12, 157, 83, 255, 16, 157, 111, 255, 20, 157, 139, 255, 24, 157, 167, 255, 28, 157, 195, 255, 32, 157, 223, 255, 36, 157, 251, 255, 40, 157, 255, 255, 44, 157, 255, 255, 48, 157, 255, 255, 52, 157, 255, 255, 56, 157, 255, 255, 60, 157, 255, 255, 64, 157, 255, 255, 68, 157, 255, 255, 72, 157, 255, 255, 76, 157, 255, 255, 80, 157, 255, 255, 85, 157, 255, 255, 89, 157, 255, 255, 93, 157, 255, 255, 97, 157, 255, 255, 101, 157, 255, 255, 105, 157, 255, 255, 109, 157, 255, 255, 113, 157, 255, 255, 117, 157, 255, 255, 121, 157, 255, 255, 125, 157, 255, 255, 129, 157, 255, 255, 133, 157, 255, 255, 137, 157, 255, 255, 141, 157, 255, 255, 145, 157, 255, 255, 149, 157, 255, 255, 153, 157, 255, 255, 157, 157, 255, 255, 161, 157, 255, 255, 165, 157, 255, 255, 170, 157, 255, 255, 174, 157, 255, 255, 178, 157, 255, 255, 182, 157, 255, 255, 186, 157, 255, 255, 190, 157, 255, 255, 194, 157, 255, 255, 198, 157, 255, 255, 202, 157, 255, 255, 206, 157, 255, 255, 210, 157, 255, 255, 214, 157, 255, 255, 218, 157, 251, 255, 222, 157, 223, 255, 226, 157, 195, 255, 230, 157, 167, 255, 234, 157, 139, 255, 238, 157, 111, 255, 242, 157, 83, 255, 246, 157, 55, 255, 250, 157, 27, 255, 255, 157, 0, 255, 0, 161, 0, 255, 4, 161, 27, 255, 8, 161, 55, 255, 12, 161, 83, 255, 16, 161, 111, 255, 20, 161, 139, 255, 24, 161, 167, 255, 28, 161, 195, 255, 32, 161, 223, 255, 36, 161, 251, 255, 40, 161, 255, 255, 44, 161, 255, 255, 48, 161, 255, 255, 52, 161, 255, 255, 56, 161, 255, 255, 60, 161, 255, 255, 64, 161, 255, 255, 68, 161, 255, 255, 72, 161, 255, 255, 76, 161, 255, 255, 80, 161, 255, 255, 85, 161, 255, 255, 89, 161, 255, 255, 93, 161, 255, 255, 97, 161, 255, 255, 101, 161, 255, 255, 105, 161, 255, 255, 109, 161, 255, 255, 113, 161, 255, 255, 117, 161, 255, 255, 121, 161, 255, 255, 125, 161, 255, 255, 129, 161, 255, 255, 133, 161, 255, 255, 137, 161, 255, 255, 141, 161, 255, 255, 145, 161, 255, 255, 149, 161, 255, 255, 153, 161, 255, 255, 157, 161, 255, 255, 161, 161, 255, 255, 165, 161, 255, 255, 170, 161, 255, 255, 174, 161, 255, 255, 178, 161, 255, 255, 182, 161, 255, 255, 186, 161, 255, 255, 190, 161, 255, 255, 194, 161, 255, 255, 198, 161, 255, 255, 202, 161, 255, 255, 206, 161, 255, 255, 210, 161, 255, 255, 214, 161, 255, 255, 218, 161, 251, 255, 222, 161, 223, 255, 226, 161, 195, 255, 230, 161, 167, 255, 234, 161, 139, 255, 238, 161, 111, 255, 242, 161, 83, 255, 246, 161, 55, 255, 250, 161, 27, 255, 255, 161, 0, 255, 0, 165, 0, 255, 4, 165, 27, 255, 8, 165, 55, 255, 12, 165, 83, 255, 16, 165, 111, 255, 20, 165, 139, 255, 24, 165, 167, 255, 28, 165, 195, 255, 32, 165, 223, 255, 36, 165, 251, 255, 40, 165, 255, 255, 44, 165, 255, 255, 48, 165, 255, 255, 52, 165, 255, 255, 56, 165, 255, 255, 60, 165, 255, 255, 64, 165, 255, 255, 68, 165, 255, 255, 72, 165, 255, 255, 76, 165, 255, 255, 80, 165, 255, 255, 85, 165, 255, 255, 89, 165, 255, 255, 93, 165, 255, 255, 97, 165, 255, 255, 101, 165, 255, 255, 105, 165, 255, 255, 109, 165, 255, 255, 113, 165, 255, 255, 117, 165, 255, 255, 121, 165, 255, 255, 125, 165, 255, 255, 129, 165, 255, 255, 133, 165, 255, 255, 137, 165, 255, 255, 141, 165, 255, 255, 145, 165, 255, 255, 149, 165, 255, 255, 153, 165, 255, 255, 157, 165, 255, 255, 161, 165, 255, 255, 165, 165, 255, 255, 170, 165, 255, 255, 174, 165, 255, 255, 178, 165, 255, 255, 182, 165, 255, 255, 186, 165, 255, 255, 190, 165, 255, 255, 194, 165, 255, 255, 198, 165, 255, 255, 202, 165, 255, 255, 206, 165, 255, 255, 210, 165, 255, 255, 214, 165, 255, 255, 218, 165, 251, 255, 222, 165, 223, 255, 226, 165, 195, 255, 230, 165, 167, 255, 234, 165, 139, 255, 238, 165, 111, 255, 242, 165, 83, 255, 246, 165, 55, 255, 250, 165, 27, 255, 255, 165, 0, 255, 0, 170, 0, 255, 4, 170, 27, 255, 8, 170, 55, 255, 12, 170, 83, 255, 16, 170, 111, 255, 20, 170, 139, 255, 24, 170, 167, 255, 28, 170, 195, 255, 32, 170, 223, 255, 36, 170, 251, 255, 40, 170, 255, 255, 44, 170, 255, 255, 48, 170, 255, 255, 52, 170, 255, 255, 56, 170, 255, 255, 60, 170, 255, 255, 64, 170, 255, 255, 68, 170, 255, 255, 72, 170, 255, 255, 76, 170, 255, 255, 80, 170, 255, 255, 85, 170, 255, 255, 89, 170, 255, 255, 93, 170, 255, 255, 97, 170, 255, 255, 101, 170, 255, 255, 105, 170, 255, 255, 109, 170, 255, 255, 113, 170, 255, 255, 117, 170, 255, 255, 121, 170, 255, 255, 125, 170, 255, 255, 129, 170, 255, 255, 133, 170, 255, 255, 137, 170, 255, 255, 141, 170, 255, 255, 145, 170, 255, 255, 149, 170, 255, 255, 153, 170, 255, 255, 157, 170, 255, 255, 161, 170, 255, 255, 165, 170, 255, 255, 170, 170, 255, 255, 174, 170, 255, 255, 178, 170, 255, 255, 182, 170, 255, 255, 186, 170, 255, 255, 190, 170, 255, 255, 194, 170, 255, 255, 198, 170, 255, 255, 202, 170, 255, 255, 206, 170, 255, 255, 210, 170, 255, 255, 214, 170, 255, 255, 218, 170, 251, 255, 222, 170, 223, 255, 226, 170, 195, 255, 230, 170, 167, 255, 234, 170, 139, 255, 238, 170, 111, 255, 242, 170, 83, 255, 246, 170, 55, 255, 250, 170, 27, 255, 255, 170, 0, 255, 0, 174, 0, 255, 4, 174, 27, 255, 8, 174, 55, 255, 12, 174, 83, 255, 16, 174, 111, 255, 20, 174, 139, 255, 24, 174, 167, 255, 28, 174, 195, 255, 32, 174, 223, 255, 36, 174, 251, 255, 40, 174, 255, 255, 44, 174, 255, 255, 48, 174, 255, 255, 52, 174, 255, 255, 56, 174, 255, 255, 60, 174, 255, 255, 64, 174, 255, 255, 68, 174, 255, 255, 72, 174, 255, 255, 76, 174, 255, 255, 80, 174, 255, 255, 85, 174, 255, 255, 89, 174, 255, 255, 93, 174, 255, 255, 97, 174, 255, 255, 101, 174, 255, 255, 105, 174, 255, 255, 109, 174, 255, 255, 113, 174, 255, 255, 117, 174, 255, 255, 121, 174, 255, 255, 125, 174, 255, 255, 129, 174, 255, 255, 133, 174, 255, 255, 137, 174, 255, 255, 141, 174, 255, 255, 145, 174, 255, 255, 149, 174, 255, 255, 153, 174, 255, 255, 157, 174, 255, 255, 161, 174, 255, 255, 165, 174, 255, 255, 170, 174, 255, 255, 174, 174, 255, 255, 178, 174, 255, 255, 182, 174, 255, 255, 186, 174, 255, 255, 190, 174, 255, 255, 194, 174, 255, 255, 198, 174, 255, 255, 202, 174, 255, 255, 206, 174, 255, 255, 210, 174, 255, 255, 214, 174, 255, 255, 218, 174, 251, 255, 222, 174, 223, 255, 226, 174, 195, 255, 230, 174, 167, 255, 234, 174, 139, 255, 238, 174, 111, 255, 242, 174, 83, 255, 246, 174, 55, 255, 250, 174, 27, 255, 255, 174, 0, 255, 0, 178, 0, 255, 4, 178, 27, 255, 8, 178, 55, 255, 12, 178, 83, 255, 16, 178, 111, 255, 20, 178, 139, 255, 24, 178, 167, 255, 28, 178, 195, 255, 32, 178, 223, 255, 36, 178, 251, 255, 40, 178, 255, 255, 44, 178, 255, 255, 48, 178, 255, 255, 52, 178, 255, 255, 56, 178, 255, 255, 60, 178, 255, 255, 64, 178, 255, 255, 68, 178, 255, 255, 72, 178, 255, 255, 76, 178, 255, 255, 80, 178, 255, 255, 85, 178, 255, 255, 89, 178, 255, 255, 93, 178, 255, 255, 97, 178, 255, 255, 101, 178, 255, 255, 105, 178, 255, 255, 109, 178, 255, 255, 113, 178, 255, 255, 117, 178, 255, 255, 121, 178, 255, 255, 125, 178, 255, 255, 129, 178, 255, 255, 133, 178, 255, 255, 137, 178, 255, 255, 141, 178, 255, 255, 145, 178, 255, 255, 149, 178, 255, 255, 153, 178, 255, 255, 157, 178, 255, 255, 161, 178, 255, 255, 165, 178, 255, 255, 170, 178, 255, 255, 174, 178, 255, 255, 178, 178, 255, 255, 182, 178, 255, 255, 186, 178, 255, 255, 190, 178, 255, 255, 194, 178, 255, 255, 198, 178, 255, 255, 202, 178, 255, 255, 206, 178, 255, 255, 210, 178, 255, 255, 214, 178, 255, 255, 218, 178, 251, 255, 222, 178, 223, 255, 226, 178, 195, 255, 230, 178, 167, 255, 234, 178, 139, 255, 238, 178, 111, 255, 242, 178, 83, 255, 246, 178, 55, 255, 250, 178, 27, 255, 255, 178, 0, 255, 0, 182, 0, 255, 4, 182, 27, 255, 8, 182, 55, 255, 12, 182, 83, 255, 16, 182, 111, 255, 20, 182, 139, 255, 24, 182, 167, 255, 28, 182, 195, 255, 32, 182, 223, 255, 36, 182, 251, 255, 40, 182, 255, 255, 44, 182, 255, 255, 48, 182, 255, 255, 52, 182, 255, 255, 56, 182, 255, 255, 60, 182, 255, 255, 64, 182, 255, 255, 68, 182, 255, 255, 72, 182, 255, 255, 76, 182, 255, 255, 80, 182, 255, 255, 85, 182, 255, 255, 89, 182, 255, 255, 93, 182, 255, 255, 97, 182, 255, 255, 101, 182, 255, 255, 105, 182, 255, 255, 109, 182, 255, 255, 113, 182, 255, 255, 117, 182, 255, 255, 121, 182, 255, 255, 125, 182, 255, 255, 129, 182, 255, 255, 133, 182, 255, 255, 137, 182, 255, 255, 141, 182, 255, 255, 145, 182, 255, 255, 149, 182, 255, 255, 153, 182, 255, 255, 157, 182, 255, 255, 161, 182, 255, 255, 165, 182, 255, 255, 170, 182, 255, 255, 174, 182, 255, 255, 178, 182, 255, 255, 182, 182, 255, 255, 186, 182, 255, 255, 190, 182, 255, 255, 194, 182, 255, 255, 198, 182, 255, 255, 202, 182, 255, 255, 206, 182, 255, 255, 210, 182, 255, 255, 214, 182, 255, 255, 218, 182, 251, 255, 222, 182, 223, 255, 226, 182, 195, 255, 230, 182, 167, 255, 234, 182, 139, 255, 238, 182, 111, 255, 242, 182, 83, 255, 246, 182, 55, 255, 250, 182, 27, 255, 255, 182, 0, 255, 0, 186, 0, 255, 4, 186, 27, 255, 8, 186, 55, 255, 12, 186, 83, 255, 16, 186, 111, 255, 20, 186, 139, 255, 24, 186, 167, 255, 28, 186, 195, 255, 32, 186, 223, 255, 36, 186, 251, 255, 40, 186, 255, 255, 44, 186, 255, 255, 48, 186, 255, 255, 52, 186, 255, 255, 56, 186, 255, 255, 60, 186, 255, 255, 64, 186, 255, 255, 68, 186, 255, 255, 72, 186, 255, 255, 76, 186, 255, 255, 80, 186, 255, 255, 85, 186, 255, 255, 89, 186, 255, 255, 93, 186, 255, 255, 97, 186, 255, 255, 101, 186, 255, 255, 105, 186, 255, 255, 109, 186, 255, 255, 113, 186, 255, 255, 117, 186, 255, 255, 121, 186, 255, 255, 125, 186, 255, 255, 129, 186, 255, 255, 133, 186, 255, 255, 137, 186, 255, 255, 141, 186, 255, 255, 145, 186, 255, 255, 149, 186, 255, 255, 153, 186, 255, 255, 157, 186, 255, 255, 161, 186, 255, 255, 165, 186, 255, 255, 170, 186, 255, 255, 174, 186, 255, 255, 178, 186, 255, 255, 182, 186, 255, 255, 186, 186, 255, 255, 190, 186, 255, 255, 194, 186, 255, 255, 198, 186, 255, 255, 202, 186, 255, 255, 206, 186, 255, 255, 210, 186, 255, 255, 214, 186, 255, 255, 218, 186, 251, 255, 222, 186, 223, 255, 226, 186, 195, 255, 230, 186, 167, 255, 234, 186, 139, 255, 238, 186, 111, 255, 242, 186, 83, 255, 246, 186, 55, 255, 250, 186, 27, 255, 255, 186, 0, 255, 0, 190, 0, 255, 4, 190, 27, 255, 8, 190, 55, 255, 12, 190, 83, 255, 16, 190, 111, 255, 20, 190, 139, 255, 24, 190, 167, 255, 28, 190, 195, 255, 32, 190, 223, 255, 36, 190, 251, 255, 40, 190, 255, 255, 44, 190, 255, 255, 48, 190, 255, 255, 52, 190, 255, 255, 56, 190, 255, 255, 60, 190, 255, 255, 64, 190, 255, 255, 68, 190, 255, 255, 72, 190, 255, 255, 76, 190, 255, 255, 80, 190, 255, 255, 85, 190, 255, 255, 89, 190, 255, 255, 93, 190, 255, 255, 97, 190, 255, 255, 101, 190, 255, 255, 105, 190, 255, 255, 109, 190, 255, 255, 113, 190, 255, 255, 117, 190, 255, 255, 121, 190, 255, 255, 125, 190, 255, 255, 129, 190, 255, 255, 133, 190, 255, 255, 137, 190, 255, 255, 141, 190, 255, 255, 145, 190, 255, 255, 149, 190, 255, 255, 153, 190, 255, 255, 157, 190, 255, 255, 161, 190, 255, 255, 165, 190, 255, 255, 170, 190, 255, 255, 174, 190, 255, 255, 178, 190, 255, 255, 182, 190, 255, 255, 186, 190, 255, 255, 190, 190, 255, 255, 194, 190, 255, 255, 198, 190, 255, 255, 202, 190, 255, 255, 206, 190, 255, 255, 210, 190, 255, 255, 214, 190, 255, 255, 218, 190, 251, 255, 222, 190, 223, 255, 226, 190, 195, 255, 230, 190, 167, 255, 234, 190, 139, 255, 238, 190, 111, 255, 242, 190, 83, 255, 246, 190, 55, 255, 250, 190, 27, 255, 255, 190, 0, 255, 0, 194, 0, 255, 4, 194, 27, 255, 8, 194, 55, 255, 12, 194, 83, 255, 16, 194, 111, 255, 20, 194, 139, 255, 24, 194, 167, 255, 28, 194, 195, 255, 32, 194, 223, 255, 36, 194, 251, 255, 40, 194, 255, 255, 44, 194, 255, 255, 48, 194, 255, 255, 52, 194, 255, 255, 56, 194, 255, 255, 60, 194, 255, 255, 64, 194, 255, 255, 68, 194, 255, 255, 72, 194, 255, 255, 76, 194, 255, 255, 80, 194, 255, 255, 85, 194, 255, 255, 89, 194, 255, 255, 93, 194, 255, 255, 97, 194, 255, 255, 101, 194, 255, 255, 105, 194, 255, 255, 109, 194, 255, 255, 113, 194, 255, 255, 117, 194, 255, 255, 121, 194, 255, 255, 125, 194, 255, 255, 129, 194, 255, 255, 133, 194, 255, 255, 137, 194, 255, 255, 141, 194, 255, 255, 145, 194, 255, 255, 149, 194, 255, 255, 153, 194, 255, 255, 157, 194, 255, 255, 161, 194, 255, 255, 165, 194, 255, 255, 170, 194, 255, 255, 174, 194, 255, 255, 178, 194, 255, 255, 182, 194, 255, 255, 186, 194, 255, 255, 190, 194, 255, 255, 194, 194, 255, 255, 198, 194, 255, 255, 202, 194, 255, 255, 206, 194, 255, 255, 210, 194, 255, 255, 214, 194, 255, 255, 218, 194, 251, 255, 222, 194, 223, 255, 226, 194, 195, 255, 230, 194, 167, 255, 234, 194, 139, 255, 238, 194, 111, 255, 242, 194, 83, 255, 246, 194, 55, 255, 250, 194, 27, 255, 255, 194, 0, 255, 0, 198, 0, 255, 4, 198, 27, 255, 8, 198, 55, 255, 12, 198, 83, 255, 16, 198, 111, 255, 20, 198, 139, 255, 24, 198, 167, 255, 28, 198, 195, 255, 32, 198, 223, 255, 36, 198, 251, 255, 40, 198, 255, 255, 44, 198, 255, 255, 48, 198, 255, 255, 52, 198, 255, 255, 56, 198, 255, 255, 60, 198, 255, 255, 64, 198, 255, 255, 68, 198, 255, 255, 72, 198, 255, 255, 76, 198, 255, 255, 80, 198, 255, 255, 85, 198, 255, 255, 89, 198, 255, 255, 93, 198, 255, 255, 97, 198, 255, 255, 101, 198, 255, 255, 105, 198, 255, 255, 109, 198, 255, 255, 113, 198, 255, 255, 117, 198, 255, 255, 121, 198, 255, 255, 125, 198, 255, 255, 129, 198, 255, 255, 133, 198, 255, 255, 137, 198, 255, 255, 141, 198, 255, 255, 145, 198, 255, 255, 149, 198, 255, 255, 153, 198, 255, 255, 157, 198, 255, 255, 161, 198, 255, 255, 165, 198, 255, 255, 170, 198, 255, 255, 174, 198, 255, 255, 178, 198, 255, 255, 182, 198, 255, 255, 186, 198, 255, 255, 190, 198, 255, 255, 194, 198, 255, 255, 198, 198, 255, 255, 202, 198, 255, 255, 206, 198, 255, 255, 210, 198, 255, 255, 214, 198, 255, 255, 218, 198, 251, 255, 222, 198, 223, 255, 226, 198, 195, 255, 230, 198, 167, 255, 234, 198, 139, 255, 238, 198, 111, 255, 242, 198, 83, 255, 246, 198, 55, 255, 250, 198, 27, 255, 255, 198, 0, 255, 0, 202, 0, 255, 4, 202, 27, 255, 8, 202, 55, 255, 12, 202, 83, 255, 16, 202, 111, 255, 20, 202, 139, 255, 24, 202, 167, 255, 28, 202, 195, 255, 32, 202, 223, 255, 36, 202, 251, 255, 40, 202, 255, 255, 44, 202, 255, 255, 48, 202, 255, 255, 52, 202, 255, 255, 56, 202, 255, 255, 60, 202, 255, 255, 64, 202, 255, 255, 68, 202, 255, 255, 72, 202, 255, 255, 76, 202, 255, 255, 80, 202, 255, 255, 85, 202, 255, 255, 89, 202, 255, 255, 93, 202, 255, 255, 97, 202, 255, 255, 101, 202, 255, 255, 105, 202, 255, 255, 109, 202, 255, 255, 113, 202, 255, 255, 117, 202, 255, 255, 121, 202, 255, 255, 125, 202, 255, 255, 129, 202, 255, 255, 133, 202, 255, 255, 137, 202, 255, 255, 141, 202, 255, 255, 145, 202, 255, 255, 149, 202, 255, 255, 153, 202, 255, 255, 157, 202, 255, 255, 161, 202, 255, 255, 165, 202, 255, 255, 170, 202, 255, 255, 174, 202, 255, 255, 178, 202, 255, 255, 182, 202, 255, 255, 186, 202, 255, 255, 190, 202, 255, 255, 194, 202, 255, 255, 198, 202, 255, 255, 202, 202, 255, 255, 206, 202, 255, 255, 210, 202, 255, 255, 214, 202, 255, 255, 218, 202, 251, 255, 222, 202, 223, 255, 226, 202, 195, 255, 230, 202, 167, 255, 234, 202, 139, 255, 238, 202, 111, 255, 242, 202, 83, 255, 246, 202, 55, 255, 250, 202, 27, 255, 255, 202, 0, 255, 0, 206, 0, 255, 4, 206, 27, 255, 8, 206, 55, 255, 12, 206, 83, 255, 16, 206, 111, 255, 20, 206, 139, 255, 24, 206, 167, 255, 28, 206, 195, 255, 32, 206, 223, 255, 36, 206, 251, 255, 40, 206, 255, 255, 44, 206, 255, 255, 48, 206, 255, 255, 52, 206, 255, 255, 56, 206, 255, 255, 60, 206, 255, 255, 64, 206, 255, 255, 68, 206, 255, 255, 72, 206, 255, 255, 76, 206, 255, 255, 80, 206, 255, 255, 85, 206, 255, 255, 89, 206, 255, 255, 93, 206, 255, 255, 97, 206, 255, 255, 101, 206, 255, 255, 105, 206, 255, 255, 109, 206, 255, 255, 113, 206, 255, 255, 117, 206, 255, 255, 121, 206, 255, 255, 125, 206, 255, 255, 129, 206, 255, 255, 133, 206, 255, 255, 137, 206, 255, 255, 141, 206, 255, 255, 145, 206, 255, 255, 149, 206, 255, 255, 153, 206, 255, 255, 157, 206, 255, 255, 161, 206, 255, 255, 165, 206, 255, 255, 170, 206, 255, 255, 174, 206, 255, 255, 178, 206, 255, 255, 182, 206, 255, 255, 186, 206, 255, 255, 190, 206, 255, 255, 194, 206, 255, 255, 198, 206, 255, 255, 202, 206, 255, 255, 206, 206, 255, 255, 210, 206, 255, 255, 214, 206, 255, 255, 218, 206, 251, 255, 222, 206, 223, 255, 226, 206, 195, 255, 230, 206, 167, 255, 234, 206, 139, 255, 238, 206, 111, 255, 242, 206, 83, 255, 246, 206, 55, 255, 250, 206, 27, 255, 255, 206, 0, 255, 0, 210, 0, 255, 4, 210, 27, 255, 8, 210, 55, 255, 12, 210, 83, 255, 16, 210, 111, 255, 20, 210, 139, 255, 24, 210, 167, 255, 28, 210, 195, 255, 32, 210, 223, 255, 36, 210, 251, 255, 40, 210, 255, 255, 44, 210, 255, 255, 48, 210, 255, 255, 52, 210, 255, 255, 56, 210, 255, 255, 60, 210, 255, 255, 64, 210, 255, 255, 68, 210, 255, 255, 72, 210, 255, 255, 76, 210, 255, 255, 80, 210, 255, 255, 85, 210, 255, 255, 89, 210, 255, 255, 93, 210, 255, 255, 97, 210, 255, 255, 101, 210, 255, 255, 105, 210, 255, 255, 109, 210, 255, 255, 113, 210, 255, 255, 117, 210, 255, 255, 121, 210, 255, 255, 125, 210, 255, 255, 129, 210, 255, 255, 133, 210, 255, 255, 137, 210, 255, 255, 141, 210, 255, 255, 145, 210, 255, 255, 149, 210, 255, 255, 153, 210, 255, 255, 157, 210, 255, 255, 161, 210, 255, 255, 165, 210, 255, 255, 170, 210, 255, 255, 174, 210, 255, 255, 178, 210, 255, 255, 182, 210, 255, 255, 186, 210, 255, 255, 190, 210, 255, 255, 194, 210, 255, 255, 198, 210, 255, 255, 202, 210, 255, 255, 206, 210, 255, 255, 210, 210, 255, 255, 214, 210, 255, 255, 218, 210, 251, 255, 222, 210, 223, 255, 226, 210, 195, 255, 230, 210, 167, 255, 234, 210, 139, 255, 238, 210, 111, 255, 242, 210, 83, 255, 246, 210, 55, 255, 250, 210, 27, 255, 255, 210, 0, 255, 0, 214, 0, 255, 4, 214, 27, 255, 8, 214, 55, 255, 12, 214, 83, 255, 16, 214, 111, 255, 20, 214, 139, 255, 24, 214, 167, 255, 28, 214, 195, 255, 32, 214, 223, 255, 36, 214, 251, 255, 40, 214, 255, 255, 44, 214, 255, 255, 48, 214, 255, 255, 52, 214, 255, 255, 56, 214, 255, 255, 60, 214, 255, 255, 64, 214, 255, 255, 68, 214, 255, 255, 72, 214, 255, 255, 76, 214, 255, 255, 80, 214, 255, 255, 85, 214, 255, 255, 89, 214, 255, 255, 93, 214, 255, 255, 97, 214, 255, 255, 101, 214, 255, 255, 105, 214, 255, 255, 109, 214, 255, 255, 113, 214, 255, 255, 117, 214, 255, 255, 121, 214, 255, 255, 125, 214, 255, 255, 129, 214, 255, 255, 133, 214, 255, 255, 137, 214, 255, 255, 141, 214, 255, 255, 145, 214, 255, 255, 149, 214, 255, 255, 153, 214, 255, 255, 157, 214, 255, 255, 161, 214, 255, 255, 165, 214, 255, 255, 170, 214, 255, 255, 174, 214, 255, 255, 178, 214, 255, 255, 182, 214, 255, 255, 186, 214, 255, 255, 190, 214, 255, 255, 194, 214, 255, 255, 198, 214, 255, 255, 202, 214, 255, 255, 206, 214, 255, 255, 210, 214, 255, 255, 214, 214, 255, 255, 218, 214, 251, 255, 222, 214, 223, 255, 226, 214, 195, 255, 230, 214, 167, 255, 234, 214, 139, 255, 238, 214, 111, 255, 242, 214, 83, 255, 246, 214, 55, 255, 250, 214, 27, 255, 255, 214, 0, 255, 0, 218, 0, 255, 4, 218, 27, 255, 8, 218, 55, 255, 12, 218, 83, 255, 16, 218, 111, 255, 20, 218, 139, 255, 24, 218, 167, 255, 28, 218, 195, 255, 32, 218, 223, 255, 36, 218, 251, 255, 40, 218, 255, 255, 44, 218, 255, 255, 48, 218, 255, 255, 52, 218, 255, 255, 56, 218, 255, 255, 60, 218, 255, 255, 64, 218, 255, 255, 68, 218, 255, 255, 72, 218, 255, 255, 76, 218, 255, 255, 80, 218, 255, 255, 85, 218, 255, 255, 89, 218, 255, 255, 93, 218, 255, 255, 97, 218, 255, 255, 101, 218, 255, 255, 105, 218, 255, 255, 109, 218, 255, 255, 113, 218, 255, 255, 117, 218, 255, 255, 121, 218, 255, 255, 125, 218, 255, 255, 129, 218, 255, 255, 133, 218, 255, 255, 137, 218, 255, 255, 141, 218, 255, 255, 145, 218, 255, 255, 149, 218, 255, 255, 153, 218, 255, 255, 157, 218, 255, 255, 161, 218, 255, 255, 165, 218, 255, 255, 170, 218, 255, 255, 174, 218, 255, 255, 178, 218, 255, 255, 182, 218, 255, 255, 186, 218, 255, 255, 190, 218, 255, 255, 194, 218, 255, 255, 198, 218, 255, 255, 202, 218, 255, 255, 206, 218, 255, 255, 210, 218, 255, 255, 214, 218, 255, 255, 218, 218, 251, 255, 222, 218, 223, 255, 226, 218, 195, 255, 230, 218, 167, 255, 234, 218, 139, 255, 238, 218, 111, 255, 242, 218, 83, 255, 246, 218, 55, 255, 250, 218, 27, 255, 255, 218, 0, 255, 0, 222, 0, 255, 4, 222, 27, 255, 8, 222, 55, 255, 12, 222, 83, 255, 16, 222, 111, 255, 20, 222, 139, 255, 24, 222, 167, 255, 28, 222, 195, 255, 32, 222, 223, 255, 36, 222, 251, 255, 40, 222, 255, 255, 44, 222, 255, 255, 48, 222, 255, 255, 52, 222, 255, 255, 56, 222, 255, 255, 60, 222, 255, 255, 64, 222, 255, 255, 68, 222, 255, 255, 72, 222, 255, 255, 76, 222, 255, 255, 80, 222, 255, 255, 85, 222, 255, 255, 89, 222, 255, 255, 93, 222, 255, 255, 97, 222, 255, 255, 101, 222, 255, 255, 105, 222, 255, 255, 109, 222, 255, 255, 113, 222, 255, 255, 117, 222, 255, 255, 121, 222, 255, 255, 125, 222, 255, 255, 129, 222, 255, 255, 133, 222, 255, 255, 137, 222, 255, 255, 141, 222, 255, 255, 145, 222, 255, 255, 149, 222, 255, 255, 153, 222, 255, 255, 157, 222, 255, 255, 161, 222, 255, 255, 165, 222, 255, 255, 170, 222, 255, 255, 174, 222, 255, 255, 178, 222, 255, 255, 182, 222, 255, 255, 186, 222, 255, 255, 190, 222, 255, 255, 194, 222, 255, 255, 198, 222, 255, 255, 202, 222, 255, 255, 206, 222, 255, 255, 210, 222, 255, 255, 214, 222, 255, 255, 218, 222, 251, 255, 222, 222, 223, 255, 226, 222, 195, 255, 230, 222, 167, 255, 234, 222, 139, 255, 238, 222, 111, 255, 242, 222, 83, 255, 246, 222, 55, 255, 250, 222, 27, 255, 255, 222, 0, 255, 0, 226, 0, 255, 4, 226, 27, 255, 8, 226, 55, 255, 12, 226, 83, 255, 16, 226, 111, 255, 20, 226, 139, 255, 24, 226, 167, 255, 28, 226, 195, 255, 32, 226, 223, 255, 36, 226, 251, 255, 40, 226, 255, 255, 44, 226, 255, 255, 48, 226, 255, 255, 52, 226, 255, 255, 56, 226, 255, 255, 60, 226, 255, 255, 64, 226, 255, 255, 68, 226, 255, 255, 72, 226, 255, 255, 76, 226, 255, 255, 80, 226, 255, 255, 85, 226, 255, 255, 89, 226, 255, 255, 93, 226, 255, 255, 97, 226, 255, 255, 101, 226, 255, 255, 105, 226, 255, 255, 109, 226, 255, 255, 113, 226, 255, 255, 117, 226, 255, 255, 121, 226, 255, 255, 125, 226, 255, 255, 129, 226, 255, 255, 133, 226, 255, 255, 137, 226, 255, 255, 141, 226, 255, 255, 145, 226, 255, 255, 149, 226, 255, 255, 153, 226, 255, 255, 157, 226, 255, 255, 161, 226, 255, 255, 165, 226, 255, 255, 170, 226, 255, 255, 174, 226, 255, 255, 178, 226, 255, 255, 182, 226, 255, 255, 186, 226, 255, 255, 190, 226, 255, 255, 194, 226, 255, 255, 198, 226, 255, 255, 202, 226, 255, 255, 206, 226, 255, 255, 210, 226, 255, 255, 214, 226, 255, 255, 218, 226, 251, 255, 222, 226, 223, 255, 226, 226, 195, 255, 230, 226, 167, 255, 234, 226, 139, 255, 238, 226, 111, 255, 242, 226, 83, 255, 246, 226, 55, 255, 250, 226, 27, 255, 255, 226, 0, 255, 0, 230, 0, 255, 4, 230, 27, 255, 8, 230, 55, 255, 12, 230, 83, 255, 16, 230, 111, 255, 20, 230, 139, 255, 24, 230, 167, 255, 28, 230, 195, 255, 32, 230, 223, 255, 36, 230, 251, 255, 40, 230, 255, 255, 44, 230, 255, 255, 48, 230, 255, 255, 52, 230, 255, 255, 56, 230, 255, 255, 60, 230, 255, 255, 64, 230, 255, 255, 68, 230, 255, 255, 72, 230, 255, 255, 76, 230, 255, 255, 80, 230, 255, 255, 85, 230, 255, 255, 89, 230, 255, 255, 93, 230, 255, 255, 97, 230, 255, 255, 101, 230, 255, 255, 105, 230, 255, 255, 109, 230, 255, 255, 113, 230, 255, 255, 117, 230, 255, 255, 121, 230, 255, 255, 125, 230, 255, 255, 129, 230, 255, 255, 133, 230, 255, 255, 137, 230, 255, 255, 141, 230, 255, 255, 145, 230, 255, 255, 149, 230, 255, 255, 153, 230, 255, 255, 157, 230, 255, 255, 161, 230, 255, 255, 165, 230, 255, 255, 170, 230, 255, 255, 174, 230, 255, 255, 178, 230, 255, 255, 182, 230, 255, 255, 186, 230, 255, 255, 190, 230, 255, 255, 194, 230, 255, 255, 198, 230, 255, 255, 202, 230, 255, 255, 206, 230, 255, 255, 210, 230, 255, 255, 214, 230, 255, 255, 218, 230, 251, 255, 222, 230, 223, 255, 226, 230, 195, 255, 230, 230, 167, 255, 234, 230, 139, 255, 238, 230, 111, 255, 242, 230, 83, 255, 246, 230, 55, 255, 250, 230, 27, 255, 255, 230, 0, 255, 0, 234, 0, 255, 4, 234, 27, 255, 8, 234, 55, 255, 12, 234, 83, 255, 16, 234, 111, 255, 20, 234, 139, 255, 24, 234, 167, 255, 28, 234, 195, 255, 32, 234, 223, 255, 36, 234, 251, 255, 40, 234, 255, 255, 44, 234, 255, 255, 48, 234, 255, 255, 52, 234, 255, 255, 56, 234, 255, 255, 60, 234, 255, 255, 64, 234, 255, 255, 68, 234, 255, 255, 72, 234, 255, 255, 76, 234, 255, 255, 80, 234, 255, 255, 85, 234, 255, 255, 89, 234, 255, 255, 93, 234, 255, 255, 97, 234, 255, 255, 101, 234, 255, 255, 105, 234, 255, 255, 109, 234, 255, 255, 113, 234, 255, 255, 117, 234, 255, 255, 121, 234, 255, 255, 125, 234, 255, 255, 129, 234, 255, 255, 133, 234, 255, 255, 137, 234, 255, 255, 141, 234, 255, 255, 145, 234, 255, 255, 149, 234, 255, 255, 153, 234, 255, 255, 157, 234, 255, 255, 161, 234, 255, 255, 165, 234, 255, 255, 170, 234, 255, 255, 174, 234, 255, 255, 178, 234, 255, 255, 182, 234, 255, 255, 186, 234, 255, 255, 190, 234, 255, 255, 194, 234, 255, 255, 198, 234, 255, 255, 202, 234, 255, 255, 206, 234, 255, 255, 210, 234, 255, 255, 214, 234, 255, 255, 218, 234, 251, 255, 222, 234, 223, 255, 226, 234, 195, 255, 230, 234, 167, 255, 234, 234, 139, 255, 238, 234, 111, 255, 242, 234, 83, 255, 246, 234, 55, 255, 250, 234, 27, 255, 255, 234, 0, 255, 0, 238, 0, 255, 4, 238, 27, 255, 8, 238, 55, 255, 12, 238, 83, 255, 16, 238, 111, 255, 20, 238, 139, 255, 24, 238, 167, 255, 28, 238, 195, 255, 32, 238, 223, 255, 36, 238, 251, 255, 40, 238, 255, 255, 44, 238, 255, 255, 48, 238, 255, 255, 52, 238, 255, 255, 56, 238, 255, 255, 60, 238, 255, 255, 64, 238, 255, 255, 68, 238, 255, 255, 72, 238, 255, 255, 76, 238, 255, 255, 80, 238, 255, 255, 85, 238, 255, 255, 89, 238, 255, 255, 93, 238, 255, 255, 97, 238, 255, 255, 101, 238, 255, 255, 105, 238, 255, 255, 109, 238, 255, 255, 113, 238, 255, 255, 117, 238, 255, 255, 121, 238, 255, 255, 125, 238, 255, 255, 129, 238, 255, 255, 133, 238, 255, 255, 137, 238, 255, 255, 141, 238, 255, 255, 145, 238, 255, 255, 149, 238, 255, 255, 153, 238, 255, 255, 157, 238, 255, 255, 161, 238, 255, 255, 165, 238, 255, 255, 170, 238, 255, 255, 174, 238, 255, 255, 178, 238, 255, 255, 182, 238, 255, 255, 186, 238, 255, 255, 190, 238, 255, 255, 194, 238, 255, 255, 198, 238, 255, 255, 202, 238, 255, 255, 206, 238, 255, 255, 210, 238, 255, 255, 214, 238, 255, 255, 218, 238, 251, 255, 222, 238, 223, 255, 226, 238, 195, 255, 230, 238, 167, 255, 234, 238, 139, 255, 238, 238, 111, 255, 242, 238, 83, 255, 246, 238, 55, 255, 250, 238, 27, 255, 255, 238, 0, 255, 0, 242, 0, 255, 4, 242, 27, 255, 8, 242, 55, 255, 12, 242, 83, 255, 16, 242, 111, 255, 20, 242, 139, 255, 24, 242, 167, 255, 28, 242, 195, 255, 32, 242, 223, 255, 36, 242, 251, 255, 40, 242, 255, 255, 44, 242, 255, 255, 48, 242, 255, 255, 52, 242, 255, 255, 56, 242, 255, 255, 60, 242, 255, 255, 64, 242, 255, 255, 68, 242, 255, 255, 72, 242, 255, 255, 76, 242, 255, 255, 80, 242, 255, 255, 85, 242, 255, 255, 89, 242, 255, 255, 93, 242, 255, 255, 97, 242, 255, 255, 101, 242, 255, 255, 105, 242, 255, 255, 109, 242, 255, 255, 113, 242, 255, 255, 117, 242, 255, 255, 121, 242, 255, 255, 125, 242, 255, 255, 129, 242, 255, 255, 133, 242, 255, 255, 137, 242, 255, 255, 141, 242, 255, 255, 145, 242, 255, 255, 149, 242, 255, 255, 153, 242, 255, 255, 157, 242, 255, 255, 161, 242, 255, 255, 165, 242, 255, 255, 170, 242, 255, 255, 174, 242, 255, 255, 178, 242, 255, 255, 182, 242, 255, 255, 186, 242, 255, 255, 190, 242, 255, 255, 194, 242, 255, 255, 198, 242, 255, 255, 202, 242, 255, 255, 206, 242, 255, 255, 210, 242, 255, 255, 214, 242, 255, 255, 218, 242, 251, 255, 222, 242, 223, 255, 226, 242, 195, 255, 230, 242, 167, 255, 234, 242, 139, 255, 238, 242, 111, 255, 242, 242, 83, 255, 246, 242, 55, 255, 250, 242, 27, 255, 255, 242, 0, 255, 0, 246, 0, 255, 4, 246, 27, 255, 8, 246, 55, 255, 12, 246, 83, 255, 16, 246, 111, 255, 20, 246, 139, 255, 24, 246, 167, 255, 28, 246, 195, 255, 32, 246, 223, 255, 36, 246, 251, 255, 40, 246, 255, 255, 44, 246, 255, 255, 48, 246, 255, 255, 52, 246, 255, 255, 56, 246, 255, 255, 60, 246, 255, 255, 64, 246, 255, 255, 68, 246, 255, 255, 72, 246, 255, 255, 76, 246, 255, 255, 80, 246, 255, 255, 85, 246, 255, 255, 89, 246, 255, 255, 93, 246, 255, 255, 97, 246, 255, 255, 101, 246, 255, 255, 105, 246, 255, 255, 109, 246, 255, 255, 113, 246, 255, 255, 117, 246, 255, 255, 121, 246, 255, 255, 125, 246, 255, 255, 129, 246, 255, 255, 133, 246, 255, 255, 137, 246, 255, 255, 141, 246, 255, 255, 145, 246, 255, 255, 149, 246, 255, 255, 153, 246, 255, 255, 157, 246, 255, 255, 161, 246, 255, 255, 165, 246, 255, 255, 170, 246, 255, 255, 174, 246, 255, 255, 178, 246, 255, 255, 182, 246, 255, 255, 186, 246, 255, 255, 190, 246, 255, 255, 194, 246, 255, 255, 198, 246, 255, 255, 202, 246, 255, 255, 206, 246, 255, 255, 210, 246, 255, 255, 214, 246, 255, 255, 218, 246, 251, 255, 222, 246, 223, 255, 226, 246, 195, 255, 230, 246, 167, 255, 234, 246, 139, 255, 238, 246, 111, 255, 242, 246, 83, 255, 246, 246, 55, 255, 250, 246, 27, 255, 255, 246, 0, 255, 0, 250, 0, 255, 4, 250, 27, 255, 8, 250, 55, 255, 12, 250, 83, 255, 16, 250, 111, 255, 20, 250, 139, 255, 24, 250, 167, 255, 28, 250, 195, 255, 32, 250, 223, 255, 36, 250, 251, 255, 40, 250, 255, 255, 44, 250, 255, 255, 48, 250, 255, 255, 52, 250, 255, 255, 56, 250, 255, 255, 60, 250, 255, 255, 64, 250, 255, 255, 68, 250, 255, 255, 72, 250, 255, 255, 76, 250, 255, 255, 80, 250, 255, 255, 85, 250, 255, 255, 89, 250, 255, 255, 93, 250, 255, 255, 97, 250, 255, 255, 101, 250, 255, 255, 105, 250, 255, 255, 109, 250, 255, 255, 113, 250, 255, 255, 117, 250, 255, 255, 121, 250, 255, 255, 125, 250, 255, 255, 129, 250, 255, 255, 133, 250, 255, 255, 137, 250, 255, 255, 141, 250, 255, 255, 145, 250, 255, 255, 149, 250, 255, 255, 153, 250, 255, 255, 157, 250, 255, 255, 161, 250, 255, 255, 165, 250, 255, 255, 170, 250, 255, 255, 174, 250, 255, 255, 178, 250, 255, 255, 182, 250, 255, 255, 186, 250, 255, 255, 190, 250, 255, 255, 194, 250, 255, 255, 198, 250, 255, 255, 202, 250, 255, 255, 206, 250, 255, 255, 210, 250, 255, 255, 214, 250, 255, 255, 218, 250, 251, 255, 222, 250, 223, 255, 226, 250, 195, 255, 230, 250, 167, 255, 234, 250, 139, 255, 238, 250, 111, 255, 242, 250, 83, 255, 246, 250, 55, 255, 250, 250, 27, 255, 255, 250, 0, 255, 0, 255, 0, 255, 4, 255, 27, 255, 8, 255, 55, 255, 12, 255, 83, 255, 16, 255, 111, 255, 20, 255, 139, 255, 24, 255, 167, 255, 28, 255, 195, 255, 32, 255, 223, 255, 36, 255, 251, 255, 40, 255, 255, 255, 44, 255, 255, 255, 48, 255, 255, 255, 52, 255, 255, 255, 56, 255, 255, 255, 60, 255, 255, 255, 64, 255, 255, 255, 68, 255, 255, 255, 72, 255, 255, 255, 76, 255, 255, 255, 80, 255, 255, 255, 85, 255, 255, 255, 89, 255, 255, 255, 93, 255, 255, 255, 97, 255, 255, 255, 101, 255, 255, 255, 105, 255, 255, 255, 109, 255, 255, 255, 113, 255, 255, 255, 117, 255, 255, 255, 121, 255, 255, 255, 125, 255, 255, 255, 129, 255, 255, 255, 133, 255, 255, 255, 137, 255, 255, 255, 141, 255, 255, 255, 145, 255, 255, 255, 149, 255, 255, 255, 153, 255, 255, 255, 157, 255, 255, 255, 161, 255, 255, 255, 165, 255, 255, 255, 170, 255, 255, 255, 174, 255, 255, 255, 178, 255, 255, 255, 182, 255, 255, 255, 186, 255, 255, 255, 190, 255, 255, 255, 194, 255, 255, 255, 198, 255, 255, 255, 202, 255, 255, 255, 206, 255, 255, 255, 210, 255, 255, 255, 214, 255, 255, 255, 218, 255, 251, 255, 222, 255, 223, 255, 226, 255, 195, 255, 230, 255, 167, 255, 234, 255, 139, 255, 238, 255, 111, 255, 242, 255, 83, 255, 246, 255, 55, 255, 250, 255, 27, 255, 255, 255, 0, 255),
"format": "RGBA8",
"height": 64,
"mipmaps": false,
"width": 64
}

[sub_resource type="ImageTexture" id="ImageTexture_wksu6"]
image = SubResource("Image_rkgoq")

[sub_resource type="Curve2D" id="Curve2D_513v4"]
_data = {
"points": PackedVector2Array(0, 0, 0, 0, 105, 0, 0, 0, 0, 0, 105.51, 6.63814, 0, 0, 0, 0, 105.135, 13.2817, 0, 0, 0, 0, 103.638, 19.77, 0, 0, 0, 0, 100.786, 25.8775, 0, 0, 0, 0, 97.0279, 31.5263, 0, 0, 0, 0, 93.0214, 36.8298, 0, 0, 0, 0, 89.0351, 41.8967, 0, 0, 0, 0, 84.8898, 46.6686, 0, 0, 0, 0, 80.5683, 51.1302, 0, 0, 0, 0, 75.6398, 54.9555, 0, 0, 0, 0, 69.5176, 57.51, 0, 0, 0, 0, 62.6357, 58.8188, 0, 0, 0, 0, 56.1183, 59.7599, 0, 0, 0, 0, 50.8685, 61.4894, 0, 0, 0, 0, 47.056, 64.767, 0, 0, 0, 0, 43.8342, 69.0716, 0, 0, 0, 0, 39.9152, 72.6055, 0, 0, 0, 0, 34.2615, 72.8094, 0, 0, 0, 0, 27.7172, 70.0057, 0, 0, 0, 0, 22.3442, 68.7685, 0, 0, 0, 0, 18.7448, 73.0061, 0, 0, 0, 0, 15.7406, 82.5151, 0, 0, 0, 0, 11.7637, 93.1192, 0, 0, 0, 0, 6.33132, 100.633, 0, 0, 0, 0, -4.62101e-06, 105.716, 0, 0, 0, 0, -6.89984, 109.67, 0, 0, 0, 0, -14.2315, 112.654, 0, 0, 0, 0, -21.9279, 114.95, 0, 0, 0, 0, -29.9248, 116.55, 0, 0, 0, 0, -38.2976, 117.868, 0, 0, 0, 0, -47.3093, 119.49, 0, 0, 0, 0, -56.4098, 119.877, 0, 0, 0, 0, -64.5888, 117.487, 0, 0, 0, 0, -71.2929, 112.34, 0, 0, 0, 0, -76.247, 104.945, 0, 0, 0, 0, -79.603, 96.2234, 0, 0, 0, 0, -81.9036, 87.2185, 0, 0, 0, 0, -84.1552, 79.0269, 0, 0, 0, 0, -87.7993, 72.6339, 0, 0, 0, 0, -92.963, 67.5416, 0, 0, 0, 0, -98.444, 62.4745, 0, 0, 0, 0, -102.827, 56.5295, 0, 0, 0, 0, -105.16, 49.4845, 0, 0, 0, 0, -105.533, 41.7834, 0, 0, 0, 0, -104.732, 34.0295, 0, 0, 0, 0, -103.757, 26.6402, 0, 0, 0, 0, -103.325, 19.7102, 0, 0, 0, 0, -103.525, 13.0782, 0, 0, 0, 0, -104.194, 6.55533, 0, 0, 0, 0, -105, -9.17939e-06, 0, 0, 0, 0, -105.482, -6.63636, 0, 0, 0, 0, -105.656, -13.3475, 0, 0, 0, 0, -105.888, -20.1993, 0, 0, 0, 0, -106.455, -27.3331, 0, 0, 0, 0, -107.219, -34.8376, 0, 0, 0, 0, -107.837, -42.6957, 0, 0, 0, 0, -107.792, -50.7232, 0, 0, 0, 0, -106.625, -58.6175, 0, 0, 0, 0, -103.685, -65.8007, 0, 0, 0, 0, -99.0965, -71.9978, 0, 0, 0, 0, -93.9129, -77.6915, 0, 0, 0, 0, -89.9004, -84.4221, 0, 0, 0, 0, -87.5806, -93.2639, 0, 0, 0, 0, -85.5865, -103.456, 0, 0, 0, 0, -81.5053, -112.182, 0, 0, 0, 0, -73.6374, -116.034, 0, 0, 0, 0, -62.7307, -114.107, 0, 0, 0, 0, -52.1192, -110.759, 0, 0, 0, 0, -44.1502, -111.511, 0, 0, 0, 0, -38.1014, -117.264, 0, 0, 0, 0, -32.4385, -126.34, 0, 0, 0, 0, -25.8752, -135.642, 0, 0, 0, 0, -17.9148, -141.81, 0, 0, 0, 0, -9.11418, -144.866, 0, 0, 0, 0, 1.7587e-06, -147.481, 0, 0, 0, 0, 9.56553, -152.04, 0, 0, 0, 0, 19.859, -157.2, 0, 0, 0, 0, 30.295, -158.812, 0, 0, 0, 0, 39.7099, -154.66, 0, 0, 0, 0, 47.1435, -145.093, 0, 0, 0, 0, 52.3932, -132.33, 0, 0, 0, 0, 56.6593, -120.407, 0, 0, 0, 0, 61.3117, -111.525, 0, 0, 0, 0, 66.3161, -104.498, 0, 0, 0, 0, 70.6136, -97.1914, 0, 0, 0, 0, 73.5841, -88.948, 0, 0, 0, 0, 75.8958, -80.8208, 0, 0, 0, 0, 78.1982, -73.433, 0, 0, 0, 0, 80.5937, -66.6729, 0, 0, 0, 0, 82.8872, -60.2211, 0, 0, 0, 0, 85.3093, -54.1389, 0, 0, 0, 0, 88.4595, -48.631, 0, 0, 0, 0, 92.2034, -43.3876, 0, 0, 0, 0, 96.0979, -38.0478, 0, 0, 0, 0, 100.005, -32.4936, 0, 0, 0, 0, 103.386, -26.545, 0, 0, 0, 0, 105.329, -20.0925, 0, 0, 0, 0, 105.873, -13.3749, 0, 0, 0, 0, 105.627, -6.64547)
}
point_count = 100

[node name="RoadGenerator" type="Node2D"]
script = ExtResource("1_6qnmg")
uva_textures = Array[GradientTexture2D]([SubResource("GradientTexture2D_1rtt7"), SubResource("GradientTexture2D_33yaq"), SubResource("GradientTexture2D_emer7")])
uva_texture = SubResource("ImageTexture_wksu6")

[node name="Edge1" parent="." instance=ExtResource("2_8dkax")]
level_seed = 0
radius = 95.0

[node name="Edge2" parent="." instance=ExtResource("2_8dkax")]
curve = SubResource("Curve2D_513v4")
level_seed = 0
radius = 105.0

[node name="Road" type="Polygon2D" parent="."]
texture = SubResource("ImageTexture_wksu6")
polygon = PackedVector2Array(95, 0, 105, 0, 95.53, 6.01024, 105.51, 6.63814, 95.2143, 12.0284, 105.135, 13.2817, 93.8148, 17.8961, 103.638, 19.77, 91.1004, 23.3906, 100.786, 25.8775, 87.5173, 28.4361, 97.0279, 31.5263, 83.7236, 33.1485, 93.0214, 36.8298, 79.9869, 37.639, 89.0351, 41.8967, 76.1267, 41.851, 84.8898, 46.6686, 72.125, 45.7719, 80.5683, 51.1302, 67.5496, 49.0777, 75.6398, 54.9555, 61.8125, 51.1357, 69.5176, 57.51, 55.346, 51.9734, 62.6357, 58.8188, 49.2728, 52.4702, 56.1183, 59.7599, 44.4942, 53.7843, 50.8685, 61.4894, 41.1781, 56.6768, 47.056, 64.767, 38.4759, 60.6283, 43.8342, 69.0716, 35.0977, 63.8424, 39.9152, 72.6055, 30.0037, 63.7611, 34.2615, 72.8094, 24.036, 60.708, 27.7172, 70.0057, 19.2541, 59.258, 22.3442, 68.7685, 16.2579, 63.3203, 18.7448, 73.0061, 13.8668, 72.6922, 15.7406, 82.5151, 10.5104, 83.198, 11.7637, 93.1192, 5.70342, 90.6532, 6.33132, 100.633, -4.1839e-06, 95.7164, -4.62101e-06, 105.716, -6.27194, 99.6897, -6.89984, 109.67, -12.9781, 102.732, -14.2315, 112.654, -20.0541, 105.127, -21.9279, 114.95, -27.4379, 106.864, -29.9248, 116.55, -35.2074, 108.357, -38.2976, 117.868, -43.6281, 110.192, -47.3093, 119.49, -52.152, 110.829, -56.4098, 119.877, -59.7712, 108.724, -64.5888, 117.487, -65.9346, 103.896, -71.2929, 112.34, -70.3691, 96.8548, -76.247, 104.945, -73.2287, 88.5183, -79.603, 96.2234, -75.0582, 79.9288, -81.9036, 87.2185, -76.8655, 72.1815, -84.1552, 79.0269, -80.0942, 66.2596, -87.7993, 72.6339, -84.8728, 61.6637, -92.963, 67.5416, -90.0008, 57.1162, -98.444, 62.4745, -94.0636, 51.7119, -102.827, 56.5295, -96.1115, 45.2267, -105.16, 49.4845, -96.2351, 38.1022, -105.533, 41.7834, -95.2213, 30.9393, -104.732, 34.0295, -94.0708, 24.1533, -103.757, 26.6402, -93.5017, 17.8364, -103.325, 19.7102, -93.6038, 11.8249, -103.525, 13.0782, -94.2138, 5.92743, -104.194, 6.55533, -95, -8.30516e-06, -105, -9.17939e-06, -95.5015, -6.00846, -105.482, -6.63636, -95.7352, -12.0942, -105.656, -13.3475, -96.0655, -18.3255, -105.888, -20.1993, -96.7695, -24.8462, -106.455, -27.3331, -97.7085, -31.7474, -107.219, -34.8376, -98.5393, -39.0145, -107.837, -42.6957, -98.744, -46.4654, -107.792, -50.7232, -97.8617, -53.7999, -106.625, -58.6175, -95.242, -60.4424, -103.685, -65.8007, -91.0063, -66.1199, -99.0965, -71.9978, -86.2077, -71.3172, -93.9129, -77.6915, -82.6108, -77.5767, -89.9004, -84.4221, -80.7352, -85.9742, -87.5806, -93.2639, -79.2123, -95.7513, -85.5865, -103.456, -75.6274, -104.092, -81.5053, -112.182, -68.2791, -107.591, -73.6374, -116.034, -57.9131, -105.344, -62.7307, -114.107, -47.8615, -101.711, -52.1192, -110.759, -40.469, -102.213, -44.1502, -111.511, -35.0112, -107.753, -38.1014, -117.264, -29.9516, -116.654, -32.4385, -126.34, -24.0014, -125.82, -25.8752, -135.642, -16.6615, -131.889, -17.9148, -141.81, -8.48628, -134.885, -9.11418, -144.866, 1.63945e-06, -137.481, 1.7587e-06, -147.481, 8.93762, -142.059, 9.56553, -152.04, 18.6056, -147.279, 19.859, -157.2, 28.4212, -148.989, 30.295, -158.812, 37.223, -144.974, 39.7099, -154.66, 44.0534, -135.582, 47.1435, -145.093, 48.712, -123.032, 52.3932, -132.33, 52.4015, -111.359, 56.6593, -120.407, 56.4941, -102.762, 61.3117, -111.525, 60.9579, -96.0543, 66.3161, -104.498, 64.7358, -89.1012, 70.6136, -97.1914, 67.2099, -81.2428, 73.5841, -88.948, 69.0503, -73.5311, 75.8958, -80.8208, 70.9085, -66.5876, 78.1982, -73.433, 72.8886, -60.2987, 80.5937, -66.6729, 74.797, -54.3432, 82.8872, -60.2211, 76.866, -48.7807, 85.3093, -54.1389, 79.6964, -43.8135, 88.4595, -48.631, 83.1551, -39.1298, 92.2034, -43.3876, 86.8001, -34.3666, 96.0979, -38.0478, 90.4944, -29.4034, 100.005, -32.4936, 93.7001, -24.0581, 103.386, -26.545, 95.5059, -18.2187, 105.329, -20.0925, 95.9519, -12.1215, 105.873, -13.3749, 95.6466, -6.01756, 105.627, -6.64547)
uv = PackedVector2Array(0, 0, 64, 0, 0, 64, 64, 64, 0, 0, 64, 0, 0, 64, 64, 64, 0, 0, 64, 0, 0, 64, 64, 64, 0, 0, 64, 0, 0, 64, 64, 64, 0, 0, 64, 0, 0, 64, 64, 64, 0, 0, 64, 0, 0, 64, 64, 64, 0, 0, 64, 0, 0, 64, 64, 64, 0, 0, 64, 0, 0, 64, 64, 64, 0, 0, 64, 0, 0, 64, 64, 64, 0, 0, 64, 0, 0, 64, 64, 64, 0, 0, 64, 0, 0, 64, 64, 64, 0, 0, 64, 0, 0, 64, 64, 64, 0, 0, 64, 0, 0, 64, 64, 64, 0, 0, 64, 0, 0, 64, 64, 64, 0, 0, 64, 0, 0, 64, 64, 64, 0, 0, 64, 0, 0, 64, 64, 64, 0, 0, 64, 0, 0, 64, 64, 64, 0, 0, 64, 0, 0, 64, 64, 64, 0, 0, 64, 0, 0, 64, 64, 64, 0, 0, 64, 0, 0, 64, 64, 64, 0, 0, 64, 0, 0, 64, 64, 64, 0, 0, 64, 0, 0, 64, 64, 64, 0, 0, 64, 0, 0, 64, 64, 64, 0, 0, 64, 0, 0, 64, 64, 64, 0, 0, 64, 0, 0, 64, 64, 64, 0, 0, 64, 0, 0, 64, 64, 64, 0, 0, 64, 0, 0, 64, 64, 64, 0, 0, 64, 0, 0, 64, 64, 64, 0, 0, 64, 0, 0, 64, 64, 64, 0, 0, 64, 0, 0, 64, 64, 64, 0, 0, 64, 0, 0, 64, 64, 64, 0, 0, 64, 0, 0, 64, 64, 64, 0, 0, 64, 0, 0, 64, 64, 64, 0, 0, 64, 0, 0, 64, 64, 64, 0, 0, 64, 0, 0, 64, 64, 64, 0, 0, 64, 0, 0, 64, 64, 64, 0, 0, 64, 0, 0, 64, 64, 64, 0, 0, 64, 0, 0, 64, 64, 64, 0, 0, 64, 0, 0, 64, 64, 64, 0, 0, 64, 0, 0, 64, 64, 64, 0, 0, 64, 0, 0, 64, 64, 64, 0, 0, 64, 0, 0, 64, 64, 64, 0, 0, 64, 0, 0, 64, 64, 64, 0, 0, 64, 0, 0, 64, 64, 64, 0, 0, 64, 0, 0, 64, 64, 64, 0, 0, 64, 0, 0, 64, 64, 64, 0, 0, 64, 0, 0, 64, 64, 64, 0, 0, 64, 0, 0, 64, 64, 64, 0, 0, 64, 0, 0, 64, 64, 64, 0, 0, 64, 0, 0, 64, 64, 64)
polygons = [PackedInt32Array(0, 1, 2), PackedInt32Array(2, 3, 1), PackedInt32Array(2, 3, 4), PackedInt32Array(4, 5, 3), PackedInt32Array(4, 5, 6), PackedInt32Array(6, 7, 5), PackedInt32Array(6, 7, 8), PackedInt32Array(8, 9, 7), PackedInt32Array(8, 9, 10), PackedInt32Array(10, 11, 9), PackedInt32Array(10, 11, 12), PackedInt32Array(12, 13, 11), PackedInt32Array(12, 13, 14), PackedInt32Array(14, 15, 13), PackedInt32Array(14, 15, 16), PackedInt32Array(16, 17, 15), PackedInt32Array(16, 17, 18), PackedInt32Array(18, 19, 17), PackedInt32Array(18, 19, 20), PackedInt32Array(20, 21, 19), PackedInt32Array(20, 21, 22), PackedInt32Array(22, 23, 21), PackedInt32Array(22, 23, 24), PackedInt32Array(24, 25, 23), PackedInt32Array(24, 25, 26), PackedInt32Array(26, 27, 25), PackedInt32Array(26, 27, 28), PackedInt32Array(28, 29, 27), PackedInt32Array(28, 29, 30), PackedInt32Array(30, 31, 29), PackedInt32Array(30, 31, 32), PackedInt32Array(32, 33, 31), PackedInt32Array(32, 33, 34), PackedInt32Array(34, 35, 33), PackedInt32Array(34, 35, 36), PackedInt32Array(36, 37, 35), PackedInt32Array(36, 37, 38), PackedInt32Array(38, 39, 37), PackedInt32Array(38, 39, 40), PackedInt32Array(40, 41, 39), PackedInt32Array(40, 41, 42), PackedInt32Array(42, 43, 41), PackedInt32Array(42, 43, 44), PackedInt32Array(44, 45, 43), PackedInt32Array(44, 45, 46), PackedInt32Array(46, 47, 45), PackedInt32Array(46, 47, 48), PackedInt32Array(48, 49, 47), PackedInt32Array(48, 49, 50), PackedInt32Array(50, 51, 49), PackedInt32Array(50, 51, 52), PackedInt32Array(52, 53, 51), PackedInt32Array(52, 53, 54), PackedInt32Array(54, 55, 53), PackedInt32Array(54, 55, 56), PackedInt32Array(56, 57, 55), PackedInt32Array(56, 57, 58), PackedInt32Array(58, 59, 57), PackedInt32Array(58, 59, 60), PackedInt32Array(60, 61, 59), PackedInt32Array(60, 61, 62), PackedInt32Array(62, 63, 61), PackedInt32Array(62, 63, 64), PackedInt32Array(64, 65, 63), PackedInt32Array(64, 65, 66), PackedInt32Array(66, 67, 65), PackedInt32Array(66, 67, 68), PackedInt32Array(68, 69, 67), PackedInt32Array(68, 69, 70), PackedInt32Array(70, 71, 69), PackedInt32Array(70, 71, 72), PackedInt32Array(72, 73, 71), PackedInt32Array(72, 73, 74), PackedInt32Array(74, 75, 73), PackedInt32Array(74, 75, 76), PackedInt32Array(76, 77, 75), PackedInt32Array(76, 77, 78), PackedInt32Array(78, 79, 77), PackedInt32Array(78, 79, 80), PackedInt32Array(80, 81, 79), PackedInt32Array(80, 81, 82), PackedInt32Array(82, 83, 81), PackedInt32Array(82, 83, 84), PackedInt32Array(84, 85, 83), PackedInt32Array(84, 85, 86), PackedInt32Array(86, 87, 85), PackedInt32Array(86, 87, 88), PackedInt32Array(88, 89, 87), PackedInt32Array(88, 89, 90), PackedInt32Array(90, 91, 89), PackedInt32Array(90, 91, 92), PackedInt32Array(92, 93, 91), PackedInt32Array(92, 93, 94), PackedInt32Array(94, 95, 93), PackedInt32Array(94, 95, 96), PackedInt32Array(96, 97, 95), PackedInt32Array(96, 97, 98), PackedInt32Array(98, 99, 97), PackedInt32Array(98, 99, 100), PackedInt32Array(100, 101, 99), PackedInt32Array(100, 101, 102), PackedInt32Array(102, 103, 101), PackedInt32Array(102, 103, 104), PackedInt32Array(104, 105, 103), PackedInt32Array(104, 105, 106), PackedInt32Array(106, 107, 105), PackedInt32Array(106, 107, 108), PackedInt32Array(108, 109, 107), PackedInt32Array(108, 109, 110), PackedInt32Array(110, 111, 109), PackedInt32Array(110, 111, 112), PackedInt32Array(112, 113, 111), PackedInt32Array(112, 113, 114), PackedInt32Array(114, 115, 113), PackedInt32Array(114, 115, 116), PackedInt32Array(116, 117, 115), PackedInt32Array(116, 117, 118), PackedInt32Array(118, 119, 117), PackedInt32Array(118, 119, 120), PackedInt32Array(120, 121, 119), PackedInt32Array(120, 121, 122), PackedInt32Array(122, 123, 121), PackedInt32Array(122, 123, 124), PackedInt32Array(124, 125, 123), PackedInt32Array(124, 125, 126), PackedInt32Array(126, 127, 125), PackedInt32Array(126, 127, 128), PackedInt32Array(128, 129, 127), PackedInt32Array(128, 129, 130), PackedInt32Array(130, 131, 129), PackedInt32Array(130, 131, 132), PackedInt32Array(132, 133, 131), PackedInt32Array(132, 133, 134), PackedInt32Array(134, 135, 133), PackedInt32Array(134, 135, 136), PackedInt32Array(136, 137, 135), PackedInt32Array(136, 137, 138), PackedInt32Array(138, 139, 137), PackedInt32Array(138, 139, 140), PackedInt32Array(140, 141, 139), PackedInt32Array(140, 141, 142), PackedInt32Array(142, 143, 141), PackedInt32Array(142, 143, 144), PackedInt32Array(144, 145, 143), PackedInt32Array(144, 145, 146), PackedInt32Array(146, 147, 145), PackedInt32Array(146, 147, 148), PackedInt32Array(148, 149, 147), PackedInt32Array(148, 149, 150), PackedInt32Array(150, 151, 149), PackedInt32Array(150, 151, 152), PackedInt32Array(152, 153, 151), PackedInt32Array(152, 153, 154), PackedInt32Array(154, 155, 153), PackedInt32Array(154, 155, 156), PackedInt32Array(156, 157, 155), PackedInt32Array(156, 157, 158), PackedInt32Array(158, 159, 157), PackedInt32Array(158, 159, 160), PackedInt32Array(160, 161, 159), PackedInt32Array(160, 161, 162), PackedInt32Array(162, 163, 161), PackedInt32Array(162, 163, 164), PackedInt32Array(164, 165, 163), PackedInt32Array(164, 165, 166), PackedInt32Array(166, 167, 165), PackedInt32Array(166, 167, 168), PackedInt32Array(168, 169, 167), PackedInt32Array(168, 169, 170), PackedInt32Array(170, 171, 169), PackedInt32Array(170, 171, 172), PackedInt32Array(172, 173, 171), PackedInt32Array(172, 173, 174), PackedInt32Array(174, 175, 173), PackedInt32Array(174, 175, 176), PackedInt32Array(176, 177, 175), PackedInt32Array(176, 177, 178), PackedInt32Array(178, 179, 177), PackedInt32Array(178, 179, 180), PackedInt32Array(180, 181, 179), PackedInt32Array(180, 181, 182), PackedInt32Array(182, 183, 181), PackedInt32Array(182, 183, 184), PackedInt32Array(184, 185, 183), PackedInt32Array(184, 185, 186), PackedInt32Array(186, 187, 185), PackedInt32Array(186, 187, 188), PackedInt32Array(188, 189, 187), PackedInt32Array(188, 189, 190), PackedInt32Array(190, 191, 189), PackedInt32Array(190, 191, 192), PackedInt32Array(192, 193, 191), PackedInt32Array(192, 193, 194), PackedInt32Array(194, 195, 193), PackedInt32Array(194, 195, 196), PackedInt32Array(196, 197, 195), PackedInt32Array(196, 197, 198), PackedInt32Array(198, 199, 197), PackedInt32Array(198, 199, 0), PackedInt32Array(0, 1, 199)]
